0
SECTION
2
HEADER
9
$INSUNITS
70
4
0
ENDSEC
0
SECTION
2
TABLES
0
TABLE
2
LTYPE
0
LTYPE
72
65
70
64
2
CONTINUOUS
3
______
73
0
40
0
0
ENDTAB
0
TABLE
2
LAYER
0
ENDTAB
0
ENDSEC
0
SECTION
2
ENTITIES
0
LINE
8
0
10
-16.4764812
20
-14.0237171
11
47.7628699
21
-14.0237171
0
LINE
8
0
10
117.5235188
20
-3.1409366
11
117.5235188
21
58.9762829
0
LINE
8
0
10
114.5235188
20
61.9762829
11
109.5235188
21
61.9762829
0
LINE
8
0
10
97.5235188
20
61.9762829
11
-16.4764812
21
61.9762829
0
LINE
8
0
10
-19.4764812
20
58.9762829
11
-19.4764812
21
4.976283
0
LINE
8
0
10
-19.4764812
20
-7.023717
11
-19.4764812
21
-11.0237171
0
LINE
8
0
10
119.4957869
20
-50.2743062
11
132.434608
21
-64.1494931
0
LINE
8
0
10
136.6746642
20
-64.2975589
11
141.1464614
21
-60.1275406
0
LINE
8
0
10
149.9226738
20
-51.9435901
11
159.346629
21
-43.1556097
0
LINE
8
0
10
159.4946948
20
-38.9155535
11
144.0209414
21
-22.3219846
0
LINE
8
0
10
98.1135622
20
-36.2822723
11
118.9356428
21
-49.8042895
0
LINE
8
0
10
144.0209414
20
-22.3219846
11
144.1783241
21
-22.0796366
0
LINE
8
0
10
144.1783241
20
-22.0796366
11
118.8896018
21
-5.6569484
0
LINE
8
0
10
90.690504
20
-33.6320609
11
97.4563498
21
-35.9617284
0
LINE
8
0
10
72.1859555
20
-31.9236694
11
89.9752666
21
-33.4800325
0
LINE
8
0
10
50.7259349
20
-16.5544136
11
53.1425359
21
-31.8122319
0
LINE
8
0
10
56.5749044
20
-34.3059934
11
71.4551849
21
-31.9491885
0
ARC
8
0
10
47.7628699
20
-17.0237171
40
3
50
9.0000023
51
90
0
ARC
8
0
10
56.1056009
20
-31.3429284
40
3
50
189.0000023
51
279.0000023
0
ARC
8
0
10
71.9244884
20
-34.9122535
40
3
50
85.0000024
51
99.0000023
0
ARC
8
0
10
89.7137995
20
-36.4686166
40
3
50
70.999998
51
85.0000024
0
ARC
8
0
10
96.4796452
20
-38.7982841
40
3
50
57.0000027
51
70.999998
0
ARC
8
0
10
117.3017258
20
-52.3203013
40
3
50
43.0000017
51
57.0000027
0
ARC
8
0
10
134.628669
20
-62.1034979
40
3
50
223.0000017
51
313.0000017
0
ARC
8
0
10
157.3006338
20
-40.9615487
40
3
50
313.0000017
51
43.0000017
0
ARC
8
0
10
120.5235188
20
-3.1409366
40
3
50
180
51
237.0000027
0
ARC
8
0
10
114.5235188
20
58.9762829
40
3
50
0
51
90
0
ARC
8
0
10
-16.4764812
20
58.9762829
40
3
50
90
51
180
0
ARC
8
0
10
-16.4764812
20
-11.0237171
40
3
50
180
51
270
0
ARC
8
0
10
103.5235188
20
61.976283
40
6
50
359.999999
51
540.000001
0
CIRCLE
8
0
10
103.5235188
20
63.476283
40
1.5
0
ARC
8
0
10
-19.4764812
20
-1.023717
40
6
50
90
51
270
0
CIRCLE
8
0
10
-21.0764812
20
-1.023717
40
1.5
0
ARC
8
0
10
145.5235188
20
-56.023717
40
6
50
223.1547046
51
402.8452956
0
CIRCLE
8
0
10
147.0235188
20
-57.523717
40
1.5
0
CIRCLE
8
0
10
-15.4764812
20
57.976283
40
1.5
0
CIRCLE
8
0
10
-15.4764812
20
-10.023717
40
1.5
0
CIRCLE
8
0
10
52.5235188
20
-10.023717
40
1.5
0
CIRCLE
8
0
10
56.5235188
20
-31.023717
40
1.5
0
CIRCLE
8
0
10
113.5235188
20
57.976283
40
1.5
0
CIRCLE
8
0
10
113.5235188
20
-10.023717
40
1.5
0
CIRCLE
8
0
10
156.5235188
20
-41.023717
40
1.5
0
CIRCLE
8
0
10
134.5235188
20
-61.023717
40
1.5
0
LINE
8
0
10
-7.5
20
-7.5
11
7.5
21
-7.5
0
LINE
8
0
10
7.5
20
-7.5
11
7.5
21
7.5
0
LINE
8
0
10
7.5
20
7.5
11
-7.5
21
7.5
0
LINE
8
0
10
-7.5
20
7.5
11
-7.5
21
-7.5
0
LINE
8
0
10
-7.5
20
9.5
11
7.5
21
9.5
0
LINE
8
0
10
7.5
20
9.5
11
7.5
21
24.5
0
LINE
8
0
10
7.5
20
24.5
11
-7.5
21
24.5
0
LINE
8
0
10
-7.5
20
24.5
11
-7.5
21
9.5
0
LINE
8
0
10
-7.5
20
26.5
11
7.5
21
26.5
0
LINE
8
0
10
7.5
20
26.5
11
7.5
21
41.5
0
LINE
8
0
10
7.5
20
41.5
11
-7.5
21
41.5
0
LINE
8
0
10
-7.5
20
41.5
11
-7.5
21
26.5
0
LINE
8
0
10
19.0414432
20
-6.0049039
11
34.0049039
21
-4.9585568
0
LINE
8
0
10
34.0049039
20
-4.9585568
11
32.9585568
21
10.0049039
0
LINE
8
0
10
32.9585568
20
10.0049039
11
17.9950961
21
8.9585568
0
LINE
8
0
10
17.9950961
20
8.9585568
11
19.0414432
21
-6.0049039
0
LINE
8
0
10
17.8555831
20
10.953685
11
32.8190438
21
12.0000321
0
LINE
8
0
10
32.8190438
20
12.0000321
11
31.7726967
21
26.9634928
0
LINE
8
0
10
31.7726967
20
26.9634928
11
16.809236
21
25.9171457
0
LINE
8
0
10
16.809236
20
25.9171457
11
17.8555831
21
10.953685
0
LINE
8
0
10
16.6697231
20
27.9122738
11
31.6331838
21
28.9586209
0
LINE
8
0
10
31.6331838
20
28.9586209
11
30.5868367
21
43.9220816
0
LINE
8
0
10
30.5868367
20
43.9220816
11
15.623376
21
42.8757345
0
LINE
8
0
10
15.623376
20
42.8757345
11
16.6697231
21
27.9122738
0
LINE
8
0
10
37.4410061
20
-0.4415482
11
52.4318685
21
0.0819442
0
LINE
8
0
10
52.4318685
20
0.0819442
11
51.9083761
21
15.0728066
0
LINE
8
0
10
51.9083761
20
15.0728066
11
36.9175137
21
14.5493142
0
LINE
8
0
10
36.9175137
20
14.5493142
11
37.4410061
21
-0.4415482
0
LINE
8
0
10
36.8477146
20
16.5480959
11
51.838577
21
17.0715883
0
LINE
8
0
10
51.838577
20
17.0715883
11
51.3150846
21
32.0624507
0
LINE
8
0
10
51.3150846
20
32.0624507
11
36.3242222
21
31.5389583
0
LINE
8
0
10
36.3242222
20
31.5389583
11
36.8477146
21
16.5480959
0
LINE
8
0
10
36.2544232
20
33.5377399
11
51.2452856
21
34.0612323
0
LINE
8
0
10
51.2452856
20
34.0612323
11
50.7217932
21
49.0520947
0
LINE
8
0
10
50.7217932
20
49.0520947
11
35.7309308
21
48.5286023
0
LINE
8
0
10
35.7309308
20
48.5286023
11
36.2544232
21
33.5377399
0
LINE
8
0
10
56.0235188
20
4.4762829
11
71.0235188
21
4.4762829
0
LINE
8
0
10
71.0235188
20
4.4762829
11
71.0235188
21
19.4762829
0
LINE
8
0
10
71.0235188
20
19.4762829
11
56.0235188
21
19.4762829
0
LINE
8
0
10
56.0235188
20
19.4762829
11
56.0235188
21
4.4762829
0
LINE
8
0
10
56.0235188
20
21.4762829
11
71.0235188
21
21.4762829
0
LINE
8
0
10
71.0235188
20
21.4762829
11
71.0235188
21
36.4762829
0
LINE
8
0
10
71.0235188
20
36.4762829
11
56.0235188
21
36.4762829
0
LINE
8
0
10
56.0235188
20
36.4762829
11
56.0235188
21
21.4762829
0
LINE
8
0
10
56.0235188
20
38.476283
11
71.0235188
21
38.476283
0
LINE
8
0
10
71.0235188
20
38.476283
11
71.0235188
21
53.476283
0
LINE
8
0
10
71.0235188
20
53.476283
11
56.0235188
21
53.476283
0
LINE
8
0
10
56.0235188
20
53.476283
11
56.0235188
21
38.476283
0
LINE
8
0
10
74.5186149
20
-4.9822739
11
89.4820756
21
-6.028621
0
LINE
8
0
10
89.4820756
20
-6.028621
11
90.5284227
21
8.9348397
0
LINE
8
0
10
90.5284227
20
8.9348397
11
75.564962
21
9.9811868
0
LINE
8
0
10
75.564962
20
9.9811868
11
74.5186149
21
-4.9822739
0
LINE
8
0
10
75.7044751
20
11.976315
11
90.6679358
21
10.9299679
0
LINE
8
0
10
90.6679358
20
10.9299679
11
91.7142829
21
25.8934286
0
LINE
8
0
10
91.7142829
20
25.8934286
11
76.7508222
21
26.9397757
0
LINE
8
0
10
76.7508222
20
26.9397757
11
75.7044751
21
11.976315
0
LINE
8
0
10
76.890335
20
28.9349038
11
91.8537957
21
27.8885567
0
LINE
8
0
10
91.8537957
20
27.8885567
11
92.9001428
21
42.8520174
0
LINE
8
0
10
92.9001428
20
42.8520174
11
77.9366821
21
43.8983645
0
LINE
8
0
10
77.9366821
20
43.8983645
11
76.890335
21
28.9349038
0
LINE
8
0
10
93.1646015
20
-7.0216047
11
108.0824299
21
-8.5895317
0
LINE
8
0
10
108.0824299
20
-8.5895317
11
109.6503569
21
6.3282967
0
LINE
8
0
10
109.6503569
20
6.3282967
11
94.7325285
21
7.8962237
0
LINE
8
0
10
94.7325285
20
7.8962237
11
93.1646015
21
-7.0216047
0
LINE
8
0
10
94.9415854
20
9.8852675
11
109.8594138
21
8.3173405
0
LINE
8
0
10
109.8594138
20
8.3173405
11
111.4273408
21
23.2351689
0
LINE
8
0
10
111.4273408
20
23.2351689
11
96.5095124
21
24.8030959
0
LINE
8
0
10
96.5095124
20
24.8030959
11
94.9415854
21
9.8852675
0
LINE
8
0
10
96.7185693
20
26.7921397
11
111.6363977
21
25.2242127
0
LINE
8
0
10
111.6363977
20
25.2242127
11
113.2043247
21
40.1420411
0
LINE
8
0
10
113.2043247
20
40.1420411
11
98.2864963
21
41.7099681
0
LINE
8
0
10
98.2864963
20
41.7099681
11
96.7185693
21
26.7921397
0
LINE
8
0
10
56.1746284
20
-12.6013907
11
58.5211453
21
-27.4167158
0
LINE
8
0
10
58.5211453
20
-27.4167158
11
73.3364704
21
-25.0701989
0
LINE
8
0
10
73.3364704
20
-25.0701989
11
70.9899535
21
-10.2548738
0
LINE
8
0
10
70.9899535
20
-10.2548738
11
56.1746284
21
-12.6013907
0
LINE
8
0
10
77.8432621
20
-9.8326733
11
76.535926
21
-24.7755938
0
LINE
8
0
10
76.535926
20
-24.7755938
11
91.4788465
21
-26.0829299
0
LINE
8
0
10
91.4788465
20
-26.0829299
11
92.7861826
21
-11.1400094
0
LINE
8
0
10
92.7861826
20
-11.1400094
11
77.8432621
21
-9.8326733
0
LINE
8
0
10
99.5887617
20
-12.6351062
11
94.7052394
21
-26.8178849
0
LINE
8
0
10
94.7052394
20
-26.8178849
11
108.8880181
21
-31.7014072
0
LINE
8
0
10
108.8880181
20
-31.7014072
11
113.7715404
21
-17.5186285
0
LINE
8
0
10
113.7715404
20
-17.5186285
11
99.5887617
21
-12.6351062
0
LINE
8
0
10
120.5752128
20
-19.8675932
11
112.4056273
21
-32.4476517
0
LINE
8
0
10
112.4056273
20
-32.4476517
11
124.9856858
21
-40.6172372
0
LINE
8
0
10
124.9856858
20
-40.6172372
11
133.1552713
21
-28.0371787
0
LINE
8
0
10
133.1552713
20
-28.0371787
11
120.5752128
21
-19.8675932
0
LINE
8
0
10
139.1738337
20
-33.2531689
11
128.2035281
21
-43.4831443
0
LINE
8
0
10
128.2035281
20
-43.4831443
11
138.4335035
21
-54.4534499
0
LINE
8
0
10
138.4335035
20
-54.4534499
11
149.4038091
21
-44.2234745
0
LINE
8
0
10
149.4038091
20
-44.2234745
11
139.1738337
21
-33.2531689
0
ENDSEC
0
EOF