%FSLAX45Y45*%
G04 Gerber Fmt 4.5, Leading zero omitted, Abs format (unit mm)*
G04 Created by KiCad (PCBNEW 6.0.2+dfsg-1) date 2022-12-15 00:00:36*
%MOMM*%
%LPD*%
G01*
G04 APERTURE LIST*
%TA.AperFunction,Profile*%
%ADD10C,0.050000*%
%TD*%
%TA.AperFunction,Profile*%
%ADD11C,0.150000*%
%TD*%
%ADD12C,0.200000*%
%ADD13C,0.170180*%
%ADD14C,0.300000*%
%ADD15C,0.342900*%
G04 APERTURE END LIST*
D10*
X17208500Y-8953500D02*
G75*
G03*
X17335500Y-9080500I127000J0D01*
G01*
X18097500Y-9080500D02*
X17335500Y-9080500D01*
X18097500Y-9080500D02*
G75*
G03*
X18224500Y-8953500I0J127000D01*
G01*
X18224500Y-8191500D02*
X18224500Y-8953500D01*
X18224500Y-8191500D02*
G75*
G03*
X18097500Y-8064500I-127000J0D01*
G01*
X17335500Y-8064500D02*
X18097500Y-8064500D01*
X17335500Y-8064500D02*
G75*
G03*
X17208500Y-8191500I0J-127000D01*
G01*
D11*
X2876500Y-3208500D02*
X2876500Y-10208500D01*
X12042744Y-12298495D02*
X13821675Y-12454131D01*
X16773727Y-14133559D02*
X18067609Y-15521078D01*
X9896742Y-10761570D02*
X10138402Y-12287351D01*
X20376500Y-12453654D02*
G75*
G03*
X20457094Y-12658253I299999J0D01*
G01*
X9896742Y-10761570D02*
G75*
G03*
X9600435Y-10508500I-296307J-46930D01*
G01*
X3176500Y-10508500D02*
X9600435Y-10508500D01*
X14635504Y-12734355D02*
X16717712Y-14086557D01*
X12042744Y-12298495D02*
G75*
G03*
X11969667Y-12301047I-26147J-298864D01*
G01*
X18067609Y-15521078D02*
G75*
G03*
X18491615Y-15535884I219406J204600D01*
G01*
X3176500Y-2908500D02*
G75*
G03*
X2876500Y-3208500I0J-300000D01*
G01*
X3176500Y-2908500D02*
X20076500Y-2908500D01*
X2876500Y-10208500D02*
G75*
G03*
X3176500Y-10508500I300000J0D01*
G01*
X20758811Y-13421689D02*
G75*
G03*
X20773618Y-12997684I-204600J219406D01*
G01*
X16773727Y-14133559D02*
G75*
G03*
X16717712Y-14086557I-219401J-204593D01*
G01*
X14635504Y-12734355D02*
G75*
G03*
X14569783Y-12702301I-163393J-251604D01*
G01*
D10*
X17208500Y-8191500D02*
X17208500Y-8953500D01*
D11*
X20376500Y-12453654D02*
X20376500Y-3208500D01*
X10481639Y-12536728D02*
X11969667Y-12301047D01*
X13893198Y-12469334D02*
X14569783Y-12702301D01*
X13893198Y-12469334D02*
G75*
G03*
X13821675Y-12454131I-97669J-283649D01*
G01*
X18491615Y-15535884D02*
X20758811Y-13421689D01*
X20376500Y-3208500D02*
G75*
G03*
X20076500Y-2908500I-300000J0D01*
G01*
X10138402Y-12287351D02*
G75*
G03*
X10481639Y-12536728I296307J46931D01*
G01*
X20773618Y-12997684D02*
X20457094Y-12658253D01*
D12*
D13*
X4189058Y-5621038D02*
X4359238Y-5791218D01*
X4359238Y-5621038D02*
X4189058Y-5791218D01*
X4189058Y-7321038D02*
X4359238Y-7491218D01*
X4359238Y-7321038D02*
X4189058Y-7491218D01*
X4189058Y-9021038D02*
X4359238Y-9191218D01*
X4359238Y-9021038D02*
X4189058Y-9191218D01*
X5289058Y-5621038D02*
X5459238Y-5791218D01*
X5459238Y-5621038D02*
X5289058Y-5791218D01*
X5289058Y-7321038D02*
X5459238Y-7491218D01*
X5459238Y-7321038D02*
X5289058Y-7491218D01*
X5289058Y-9021038D02*
X5459238Y-9191218D01*
X5459238Y-9021038D02*
X5289058Y-9191218D01*
X6553226Y-5467687D02*
X6723406Y-5637867D01*
X6723406Y-5467687D02*
X6553226Y-5637867D01*
X6671812Y-7163545D02*
X6841992Y-7333725D01*
X6841992Y-7163545D02*
X6671812Y-7333725D01*
X6790398Y-8859404D02*
X6960578Y-9029584D01*
X6960578Y-8859404D02*
X6790398Y-9029584D01*
X7650546Y-5390954D02*
X7820726Y-5561134D01*
X7820726Y-5390954D02*
X7650546Y-5561134D01*
X7769132Y-7086813D02*
X7939312Y-7256993D01*
X7939312Y-7086813D02*
X7769132Y-7256993D01*
X7887718Y-8782672D02*
X8057898Y-8952852D01*
X8057898Y-8782672D02*
X7887718Y-8952852D01*
X8538204Y-4910741D02*
X8708384Y-5080921D01*
X8708384Y-4910741D02*
X8538204Y-5080921D01*
X8597533Y-6609706D02*
X8767713Y-6779886D01*
X8767713Y-6609706D02*
X8597533Y-6779886D01*
X8656862Y-8308670D02*
X8827042Y-8478850D01*
X8827042Y-8308670D02*
X8656862Y-8478850D01*
X9637534Y-4872352D02*
X9807714Y-5042532D01*
X9807714Y-4872352D02*
X9637534Y-5042532D01*
X9696863Y-6571316D02*
X9867043Y-6741496D01*
X9867043Y-6571316D02*
X9696863Y-6741496D01*
X9756192Y-8270281D02*
X9926372Y-8440461D01*
X9926372Y-8270281D02*
X9756192Y-8440461D01*
X10541410Y-4423410D02*
X10711590Y-4593590D01*
X10711590Y-4423410D02*
X10541410Y-4593590D01*
X10541410Y-6123410D02*
X10711590Y-6293590D01*
X10711590Y-6123410D02*
X10541410Y-6293590D01*
X10541410Y-7823410D02*
X10711590Y-7993590D01*
X10711590Y-7823410D02*
X10541410Y-7993590D01*
X11128574Y-10361389D02*
X11298754Y-10531569D01*
X11298754Y-10361389D02*
X11128574Y-10531569D01*
X11300652Y-11447846D02*
X11470832Y-11618026D01*
X11470832Y-11447846D02*
X11300652Y-11618026D01*
X11641410Y-4423410D02*
X11811590Y-4593590D01*
X11811590Y-4423410D02*
X11641410Y-4593590D01*
X11641410Y-6123410D02*
X11811590Y-6293590D01*
X11811590Y-6123410D02*
X11641410Y-6293590D01*
X11641410Y-7823410D02*
X11811590Y-7993590D01*
X11811590Y-7823410D02*
X11641410Y-7993590D01*
X12442750Y-8785044D02*
X12612930Y-8955224D01*
X12612930Y-8785044D02*
X12442750Y-8955224D01*
X12561336Y-7089185D02*
X12731516Y-7259365D01*
X12731516Y-7089185D02*
X12561336Y-7259365D01*
X12679922Y-5393326D02*
X12850102Y-5563506D01*
X12850102Y-5393326D02*
X12679922Y-5563506D01*
X13157228Y-11364726D02*
X13327408Y-11534906D01*
X13327408Y-11364726D02*
X13157228Y-11534906D01*
X13253099Y-10268911D02*
X13423279Y-10439091D01*
X13423279Y-10268911D02*
X13253099Y-10439091D01*
X13540070Y-8861776D02*
X13710250Y-9031956D01*
X13710250Y-8861776D02*
X13540070Y-9031956D01*
X13658656Y-7165917D02*
X13828836Y-7336097D01*
X13828836Y-7165917D02*
X13658656Y-7336097D01*
X13777242Y-5470058D02*
X13947422Y-5640238D01*
X13947422Y-5470058D02*
X13777242Y-5640238D01*
X14332819Y-8998213D02*
X14502999Y-9168393D01*
X14502999Y-8998213D02*
X14332819Y-9168393D01*
X14510517Y-7307526D02*
X14680697Y-7477706D01*
X14680697Y-7307526D02*
X14510517Y-7477706D01*
X14688216Y-5616839D02*
X14858396Y-5787019D01*
X14858396Y-5616839D02*
X14688216Y-5787019D01*
X14983835Y-11757899D02*
X15154015Y-11928079D01*
X15154015Y-11757899D02*
X14983835Y-11928079D01*
X15341960Y-10717829D02*
X15512140Y-10888009D01*
X15512140Y-10717829D02*
X15341960Y-10888009D01*
X15426793Y-9113194D02*
X15596973Y-9283374D01*
X15596973Y-9113194D02*
X15426793Y-9283374D01*
X15604491Y-7422507D02*
X15774671Y-7592687D01*
X15774671Y-7422507D02*
X15604491Y-7592687D01*
X15782190Y-5731820D02*
X15952370Y-5902000D01*
X15952370Y-5731820D02*
X15782190Y-5902000D01*
X16717551Y-12506549D02*
X16887732Y-12676729D01*
X16887732Y-12506549D02*
X16717551Y-12676729D01*
X17316655Y-11584011D02*
X17486835Y-11754191D01*
X17486835Y-11584011D02*
X17316655Y-11754191D01*
X18217181Y-13781468D02*
X18387361Y-13951648D01*
X18387361Y-13781468D02*
X18217181Y-13951648D01*
X19021670Y-13031270D02*
X19191850Y-13201450D01*
X19191850Y-13031270D02*
X19021670Y-13201450D01*
D14*
X4474148Y-6081128D02*
G75*
G03*
X4474148Y-6081128I-150000J0D01*
G01*
X4474148Y-7781128D02*
G75*
G03*
X4474148Y-7781128I-150000J0D01*
G01*
X4474148Y-9481128D02*
G75*
G03*
X4474148Y-9481128I-150000J0D01*
G01*
X4974148Y-6301128D02*
G75*
G03*
X4974148Y-6301128I-150000J0D01*
G01*
X4974148Y-6301128D02*
G75*
G03*
X4974148Y-6301128I-150000J0D01*
G01*
X4974148Y-8001128D02*
G75*
G03*
X4974148Y-8001128I-150000J0D01*
G01*
X4974148Y-8001128D02*
G75*
G03*
X4974148Y-8001128I-150000J0D01*
G01*
X4974148Y-9701128D02*
G75*
G03*
X4974148Y-9701128I-150000J0D01*
G01*
X4974148Y-9701128D02*
G75*
G03*
X4974148Y-9701128I-150000J0D01*
G01*
X5474148Y-6081128D02*
G75*
G03*
X5474148Y-6081128I-150000J0D01*
G01*
X5474148Y-7781128D02*
G75*
G03*
X5474148Y-7781128I-150000J0D01*
G01*
X5474148Y-9481128D02*
G75*
G03*
X5474148Y-9481128I-150000J0D01*
G01*
X6864353Y-5923375D02*
G75*
G03*
X6864353Y-5923375I-150000J0D01*
G01*
X6982939Y-7619234D02*
G75*
G03*
X6982939Y-7619234I-150000J0D01*
G01*
X7101525Y-9315093D02*
G75*
G03*
X7101525Y-9315093I-150000J0D01*
G01*
X7378481Y-6107961D02*
G75*
G03*
X7378481Y-6107961I-150000J0D01*
G01*
X7378481Y-6107961D02*
G75*
G03*
X7378481Y-6107961I-150000J0D01*
G01*
X7497067Y-7803820D02*
G75*
G03*
X7497067Y-7803820I-150000J0D01*
G01*
X7497067Y-7803820D02*
G75*
G03*
X7497067Y-7803820I-150000J0D01*
G01*
X7615653Y-9499679D02*
G75*
G03*
X7615653Y-9499679I-150000J0D01*
G01*
X7615653Y-9499679D02*
G75*
G03*
X7615653Y-9499679I-150000J0D01*
G01*
X7861917Y-5853619D02*
G75*
G03*
X7861917Y-5853619I-150000J0D01*
G01*
X7980503Y-7549478D02*
G75*
G03*
X7980503Y-7549478I-150000J0D01*
G01*
X8099089Y-9245337D02*
G75*
G03*
X8099089Y-9245337I-150000J0D01*
G01*
X8836351Y-5368858D02*
G75*
G03*
X8836351Y-5368858I-150000J0D01*
G01*
X8895680Y-7067822D02*
G75*
G03*
X8895680Y-7067822I-150000J0D01*
G01*
X8955009Y-8766787D02*
G75*
G03*
X8955009Y-8766787I-150000J0D01*
G01*
X9343724Y-5571274D02*
G75*
G03*
X9343724Y-5571274I-150000J0D01*
G01*
X9343724Y-5571274D02*
G75*
G03*
X9343724Y-5571274I-150000J0D01*
G01*
X9403053Y-7270238D02*
G75*
G03*
X9403053Y-7270238I-150000J0D01*
G01*
X9403053Y-7270238D02*
G75*
G03*
X9403053Y-7270238I-150000J0D01*
G01*
X9462382Y-8969203D02*
G75*
G03*
X9462382Y-8969203I-150000J0D01*
G01*
X9462382Y-8969203D02*
G75*
G03*
X9462382Y-8969203I-150000J0D01*
G01*
X9835742Y-5333958D02*
G75*
G03*
X9835742Y-5333958I-150000J0D01*
G01*
X9895071Y-7032923D02*
G75*
G03*
X9895071Y-7032923I-150000J0D01*
G01*
X9954400Y-8731887D02*
G75*
G03*
X9954400Y-8731887I-150000J0D01*
G01*
X10826500Y-4883500D02*
G75*
G03*
X10826500Y-4883500I-150000J0D01*
G01*
X10826500Y-6583500D02*
G75*
G03*
X10826500Y-6583500I-150000J0D01*
G01*
X10826500Y-8283500D02*
G75*
G03*
X10826500Y-8283500I-150000J0D01*
G01*
X10862028Y-11082786D02*
G75*
G03*
X10862028Y-11082786I-150000J0D01*
G01*
X10862028Y-11082786D02*
G75*
G03*
X10862028Y-11082786I-150000J0D01*
G01*
X11001103Y-10554527D02*
G75*
G03*
X11001103Y-10554527I-150000J0D01*
G01*
X11157537Y-11542215D02*
G75*
G03*
X11157537Y-11542215I-150000J0D01*
G01*
X11326500Y-5103500D02*
G75*
G03*
X11326500Y-5103500I-150000J0D01*
G01*
X11326500Y-5103500D02*
G75*
G03*
X11326500Y-5103500I-150000J0D01*
G01*
X11326500Y-6803500D02*
G75*
G03*
X11326500Y-6803500I-150000J0D01*
G01*
X11326500Y-6803500D02*
G75*
G03*
X11326500Y-6803500I-150000J0D01*
G01*
X11326500Y-8503500D02*
G75*
G03*
X11326500Y-8503500I-150000J0D01*
G01*
X11326500Y-8503500D02*
G75*
G03*
X11326500Y-8503500I-150000J0D01*
G01*
X11826500Y-4883500D02*
G75*
G03*
X11826500Y-4883500I-150000J0D01*
G01*
X11826500Y-6583500D02*
G75*
G03*
X11826500Y-6583500I-150000J0D01*
G01*
X11826500Y-8283500D02*
G75*
G03*
X11826500Y-8283500I-150000J0D01*
G01*
X12701559Y-9247708D02*
G75*
G03*
X12701559Y-9247708I-150000J0D01*
G01*
X12820145Y-7551849D02*
G75*
G03*
X12820145Y-7551849I-150000J0D01*
G01*
X12847518Y-10850051D02*
G75*
G03*
X12847518Y-10850051I-150000J0D01*
G01*
X12847518Y-10850051D02*
G75*
G03*
X12847518Y-10850051I-150000J0D01*
G01*
X12938731Y-5855990D02*
G75*
G03*
X12938731Y-5855990I-150000J0D01*
G01*
X13023103Y-11367322D02*
G75*
G03*
X13023103Y-11367322I-150000J0D01*
G01*
X13110258Y-10371128D02*
G75*
G03*
X13110258Y-10371128I-150000J0D01*
G01*
X13184995Y-9502051D02*
G75*
G03*
X13184995Y-9502051I-150000J0D01*
G01*
X13184995Y-9502051D02*
G75*
G03*
X13184995Y-9502051I-150000J0D01*
G01*
X13303581Y-7806192D02*
G75*
G03*
X13303581Y-7806192I-150000J0D01*
G01*
X13303581Y-7806192D02*
G75*
G03*
X13303581Y-7806192I-150000J0D01*
G01*
X13422167Y-6110333D02*
G75*
G03*
X13422167Y-6110333I-150000J0D01*
G01*
X13422167Y-6110333D02*
G75*
G03*
X13422167Y-6110333I-150000J0D01*
G01*
X13699123Y-9317465D02*
G75*
G03*
X13699123Y-9317465I-150000J0D01*
G01*
X13817709Y-7621606D02*
G75*
G03*
X13817709Y-7621606I-150000J0D01*
G01*
X13936295Y-5925747D02*
G75*
G03*
X13936295Y-5925747I-150000J0D01*
G01*
X14578437Y-9461475D02*
G75*
G03*
X14578437Y-9461475I-150000J0D01*
G01*
X14756135Y-7770788D02*
G75*
G03*
X14756135Y-7770788I-150000J0D01*
G01*
X14835403Y-11129241D02*
G75*
G03*
X14835403Y-11129241I-150000J0D01*
G01*
X14835403Y-11129241D02*
G75*
G03*
X14835403Y-11129241I-150000J0D01*
G01*
X14880634Y-11673625D02*
G75*
G03*
X14880634Y-11673625I-150000J0D01*
G01*
X14933834Y-6080101D02*
G75*
G03*
X14933834Y-6080101I-150000J0D01*
G01*
X15052702Y-9732534D02*
G75*
G03*
X15052702Y-9732534I-150000J0D01*
G01*
X15052702Y-9732534D02*
G75*
G03*
X15052702Y-9732534I-150000J0D01*
G01*
X15206202Y-10728107D02*
G75*
G03*
X15206202Y-10728107I-150000J0D01*
G01*
X15230400Y-8041847D02*
G75*
G03*
X15230400Y-8041847I-150000J0D01*
G01*
X15230400Y-8041847D02*
G75*
G03*
X15230400Y-8041847I-150000J0D01*
G01*
X15408098Y-6351160D02*
G75*
G03*
X15408098Y-6351160I-150000J0D01*
G01*
X15408098Y-6351160D02*
G75*
G03*
X15408098Y-6351160I-150000J0D01*
G01*
X15572959Y-9566004D02*
G75*
G03*
X15572959Y-9566004I-150000J0D01*
G01*
X15750657Y-7875316D02*
G75*
G03*
X15750657Y-7875316I-150000J0D01*
G01*
X15928356Y-6184629D02*
G75*
G03*
X15928356Y-6184629I-150000J0D01*
G01*
X16665372Y-12345465D02*
G75*
G03*
X16665372Y-12345465I-150000J0D01*
G01*
X16753184Y-11806310D02*
G75*
G03*
X16753184Y-11806310I-150000J0D01*
G01*
X16753184Y-11806310D02*
G75*
G03*
X16753184Y-11806310I-150000J0D01*
G01*
X17210011Y-11506795D02*
G75*
G03*
X17210011Y-11506795I-150000J0D01*
G01*
X18233089Y-13558201D02*
G75*
G03*
X18233089Y-13558201I-150000J0D01*
G01*
X18448726Y-13056304D02*
G75*
G03*
X18448726Y-13056304I-150000J0D01*
G01*
X18448726Y-13056304D02*
G75*
G03*
X18448726Y-13056304I-150000J0D01*
G01*
X18964443Y-12876202D02*
G75*
G03*
X18964443Y-12876202I-150000J0D01*
G01*
D15*
X4824148Y-5534678D02*
X4824148Y-5877578D01*
X4652698Y-5706128D02*
X4995598Y-5706128D01*
X4824148Y-7234678D02*
X4824148Y-7577578D01*
X4652698Y-7406128D02*
X4995598Y-7406128D01*
X4824148Y-8934678D02*
X4824148Y-9277578D01*
X4652698Y-9106128D02*
X4995598Y-9106128D01*
X7186976Y-5342961D02*
X7186976Y-5685860D01*
X7015526Y-5514411D02*
X7358426Y-5514411D01*
X7305562Y-7038819D02*
X7305562Y-7381719D01*
X7134112Y-7210269D02*
X7477012Y-7210269D01*
X7424148Y-8734678D02*
X7424148Y-9077578D01*
X7252698Y-8906128D02*
X7595598Y-8906128D01*
X9172959Y-4805187D02*
X9172959Y-5148087D01*
X9001509Y-4976637D02*
X9344409Y-4976637D01*
X9232288Y-6504151D02*
X9232288Y-6847051D01*
X9060838Y-6675601D02*
X9403738Y-6675601D01*
X9291617Y-8203115D02*
X9291617Y-8546015D01*
X9120167Y-8374565D02*
X9463067Y-8374565D01*
X11176500Y-4337050D02*
X11176500Y-4679950D01*
X11005050Y-4508500D02*
X11347950Y-4508500D01*
X11176500Y-6037050D02*
X11176500Y-6379950D01*
X11005050Y-6208500D02*
X11347950Y-6208500D01*
X11176500Y-7737050D02*
X11176500Y-8079950D01*
X11005050Y-7908500D02*
X11347950Y-7908500D01*
X11299703Y-10818258D02*
X11299703Y-11161158D01*
X11128253Y-10989708D02*
X11471153Y-10989708D01*
X13076500Y-8737050D02*
X13076500Y-9079950D01*
X12905050Y-8908500D02*
X13247950Y-8908500D01*
X13195086Y-7041191D02*
X13195086Y-7384091D01*
X13023636Y-7212641D02*
X13366536Y-7212641D01*
X13290253Y-10730459D02*
X13290253Y-11073359D01*
X13118803Y-10901909D02*
X13461703Y-10901909D01*
X13313672Y-5345332D02*
X13313672Y-5688232D01*
X13142222Y-5516782D02*
X13485122Y-5516782D01*
X14964896Y-8969344D02*
X14964896Y-9312244D01*
X14793446Y-9140794D02*
X15136346Y-9140794D01*
X15142594Y-7278656D02*
X15142594Y-7621556D01*
X14971144Y-7450106D02*
X15314044Y-7450106D01*
X15247987Y-11151504D02*
X15247987Y-11494404D01*
X15076537Y-11322954D02*
X15419437Y-11322954D01*
X15320293Y-5587969D02*
X15320293Y-5930869D01*
X15148843Y-5759419D02*
X15491743Y-5759419D01*
X17102193Y-11958920D02*
X17102193Y-12301820D01*
X16930743Y-12130370D02*
X17273643Y-12130370D01*
X18704515Y-13320009D02*
X18704515Y-13662909D01*
X18533065Y-13491459D02*
X18875965Y-13491459D01*
D12*
X3126619Y-15934454D02*
X3126619Y-15734454D01*
X3174238Y-15734454D01*
X3202809Y-15743978D01*
X3221857Y-15763026D01*
X3231381Y-15782073D01*
X3240905Y-15820168D01*
X3240905Y-15848740D01*
X3231381Y-15886835D01*
X3221857Y-15905883D01*
X3202809Y-15924930D01*
X3174238Y-15934454D01*
X3126619Y-15934454D01*
X3326619Y-15934454D02*
X3326619Y-15801121D01*
X3326619Y-15839216D02*
X3336143Y-15820168D01*
X3345667Y-15810645D01*
X3364714Y-15801121D01*
X3383762Y-15801121D01*
X3450428Y-15934454D02*
X3450428Y-15801121D01*
X3450428Y-15734454D02*
X3440905Y-15743978D01*
X3450428Y-15753502D01*
X3459952Y-15743978D01*
X3450428Y-15734454D01*
X3450428Y-15753502D01*
X3574238Y-15934454D02*
X3555190Y-15924930D01*
X3545667Y-15905883D01*
X3545667Y-15734454D01*
X3679000Y-15934454D02*
X3659952Y-15924930D01*
X3650428Y-15905883D01*
X3650428Y-15734454D01*
X3907571Y-15934454D02*
X3907571Y-15734454D01*
X3974238Y-15877311D01*
X4040905Y-15734454D01*
X4040905Y-15934454D01*
X4221857Y-15934454D02*
X4221857Y-15829692D01*
X4212333Y-15810645D01*
X4193286Y-15801121D01*
X4155190Y-15801121D01*
X4136143Y-15810645D01*
X4221857Y-15924930D02*
X4202810Y-15934454D01*
X4155190Y-15934454D01*
X4136143Y-15924930D01*
X4126619Y-15905883D01*
X4126619Y-15886835D01*
X4136143Y-15867788D01*
X4155190Y-15858264D01*
X4202810Y-15858264D01*
X4221857Y-15848740D01*
X4317095Y-15801121D02*
X4317095Y-16001121D01*
X4317095Y-15810645D02*
X4336143Y-15801121D01*
X4374238Y-15801121D01*
X4393286Y-15810645D01*
X4402810Y-15820168D01*
X4412333Y-15839216D01*
X4412333Y-15896359D01*
X4402810Y-15915407D01*
X4393286Y-15924930D01*
X4374238Y-15934454D01*
X4336143Y-15934454D01*
X4317095Y-15924930D01*
X4498048Y-15915407D02*
X4507571Y-15924930D01*
X4498048Y-15934454D01*
X4488524Y-15924930D01*
X4498048Y-15915407D01*
X4498048Y-15934454D01*
X4498048Y-15810645D02*
X4507571Y-15820168D01*
X4498048Y-15829692D01*
X4488524Y-15820168D01*
X4498048Y-15810645D01*
X4498048Y-15829692D01*
D13*
X2698820Y-16178888D02*
X2869000Y-16349068D01*
X2869000Y-16178888D02*
X2698820Y-16349068D01*
D12*
X3231381Y-16354454D02*
X3117095Y-16354454D01*
X3174238Y-16354454D02*
X3174238Y-16154454D01*
X3155190Y-16183026D01*
X3136143Y-16202073D01*
X3117095Y-16211597D01*
X3317095Y-16335407D02*
X3326619Y-16344930D01*
X3317095Y-16354454D01*
X3307571Y-16344930D01*
X3317095Y-16335407D01*
X3317095Y-16354454D01*
X3393286Y-16154454D02*
X3526619Y-16154454D01*
X3440905Y-16354454D01*
X3640905Y-16154454D02*
X3659952Y-16154454D01*
X3679000Y-16163978D01*
X3688524Y-16173502D01*
X3698048Y-16192549D01*
X3707571Y-16230645D01*
X3707571Y-16278264D01*
X3698048Y-16316359D01*
X3688524Y-16335407D01*
X3679000Y-16344930D01*
X3659952Y-16354454D01*
X3640905Y-16354454D01*
X3621857Y-16344930D01*
X3612333Y-16335407D01*
X3602809Y-16316359D01*
X3593286Y-16278264D01*
X3593286Y-16230645D01*
X3602809Y-16192549D01*
X3612333Y-16173502D01*
X3621857Y-16163978D01*
X3640905Y-16154454D01*
X3783762Y-16173502D02*
X3793286Y-16163978D01*
X3812333Y-16154454D01*
X3859952Y-16154454D01*
X3879000Y-16163978D01*
X3888524Y-16173502D01*
X3898048Y-16192549D01*
X3898048Y-16211597D01*
X3888524Y-16240168D01*
X3774238Y-16354454D01*
X3898048Y-16354454D01*
X3983762Y-16354454D02*
X3983762Y-16221121D01*
X3983762Y-16240168D02*
X3993286Y-16230645D01*
X4012333Y-16221121D01*
X4040905Y-16221121D01*
X4059952Y-16230645D01*
X4069476Y-16249692D01*
X4069476Y-16354454D01*
X4069476Y-16249692D02*
X4079000Y-16230645D01*
X4098048Y-16221121D01*
X4126619Y-16221121D01*
X4145667Y-16230645D01*
X4155190Y-16249692D01*
X4155190Y-16354454D01*
X4250429Y-16354454D02*
X4250429Y-16221121D01*
X4250429Y-16240168D02*
X4259952Y-16230645D01*
X4279000Y-16221121D01*
X4307571Y-16221121D01*
X4326619Y-16230645D01*
X4336143Y-16249692D01*
X4336143Y-16354454D01*
X4336143Y-16249692D02*
X4345667Y-16230645D01*
X4364714Y-16221121D01*
X4393286Y-16221121D01*
X4412333Y-16230645D01*
X4421857Y-16249692D01*
X4421857Y-16354454D01*
X4812333Y-16144930D02*
X4640905Y-16402073D01*
X5069476Y-16154454D02*
X5088524Y-16154454D01*
X5107571Y-16163978D01*
X5117095Y-16173502D01*
X5126619Y-16192549D01*
X5136143Y-16230645D01*
X5136143Y-16278264D01*
X5126619Y-16316359D01*
X5117095Y-16335407D01*
X5107571Y-16344930D01*
X5088524Y-16354454D01*
X5069476Y-16354454D01*
X5050429Y-16344930D01*
X5040905Y-16335407D01*
X5031381Y-16316359D01*
X5021857Y-16278264D01*
X5021857Y-16230645D01*
X5031381Y-16192549D01*
X5040905Y-16173502D01*
X5050429Y-16163978D01*
X5069476Y-16154454D01*
X5221857Y-16335407D02*
X5231381Y-16344930D01*
X5221857Y-16354454D01*
X5212333Y-16344930D01*
X5221857Y-16335407D01*
X5221857Y-16354454D01*
X5355190Y-16154454D02*
X5374238Y-16154454D01*
X5393286Y-16163978D01*
X5402810Y-16173502D01*
X5412333Y-16192549D01*
X5421857Y-16230645D01*
X5421857Y-16278264D01*
X5412333Y-16316359D01*
X5402810Y-16335407D01*
X5393286Y-16344930D01*
X5374238Y-16354454D01*
X5355190Y-16354454D01*
X5336143Y-16344930D01*
X5326619Y-16335407D01*
X5317095Y-16316359D01*
X5307571Y-16278264D01*
X5307571Y-16230645D01*
X5317095Y-16192549D01*
X5326619Y-16173502D01*
X5336143Y-16163978D01*
X5355190Y-16154454D01*
X5593286Y-16154454D02*
X5555190Y-16154454D01*
X5536143Y-16163978D01*
X5526619Y-16173502D01*
X5507571Y-16202073D01*
X5498048Y-16240168D01*
X5498048Y-16316359D01*
X5507571Y-16335407D01*
X5517095Y-16344930D01*
X5536143Y-16354454D01*
X5574238Y-16354454D01*
X5593286Y-16344930D01*
X5602809Y-16335407D01*
X5612333Y-16316359D01*
X5612333Y-16268740D01*
X5602809Y-16249692D01*
X5593286Y-16240168D01*
X5574238Y-16230645D01*
X5536143Y-16230645D01*
X5517095Y-16240168D01*
X5507571Y-16249692D01*
X5498048Y-16268740D01*
X5679000Y-16154454D02*
X5812333Y-16154454D01*
X5726619Y-16354454D01*
X5926619Y-16154454D02*
X5945667Y-16154454D01*
X5964714Y-16163978D01*
X5974238Y-16173502D01*
X5983762Y-16192549D01*
X5993286Y-16230645D01*
X5993286Y-16278264D01*
X5983762Y-16316359D01*
X5974238Y-16335407D01*
X5964714Y-16344930D01*
X5945667Y-16354454D01*
X5926619Y-16354454D01*
X5907571Y-16344930D01*
X5898048Y-16335407D01*
X5888524Y-16316359D01*
X5879000Y-16278264D01*
X5879000Y-16230645D01*
X5888524Y-16192549D01*
X5898048Y-16173502D01*
X5907571Y-16163978D01*
X5926619Y-16154454D01*
X6069476Y-16154454D02*
X6069476Y-16192549D01*
X6145667Y-16154454D02*
X6145667Y-16192549D01*
X6440905Y-16430645D02*
X6431381Y-16421121D01*
X6412333Y-16392549D01*
X6402809Y-16373502D01*
X6393286Y-16344930D01*
X6383762Y-16297311D01*
X6383762Y-16259216D01*
X6393286Y-16211597D01*
X6402809Y-16183026D01*
X6412333Y-16163978D01*
X6431381Y-16135407D01*
X6440905Y-16125883D01*
X6602809Y-16221121D02*
X6602809Y-16354454D01*
X6555190Y-16144930D02*
X6507571Y-16287788D01*
X6631381Y-16287788D01*
X6793286Y-16154454D02*
X6755190Y-16154454D01*
X6736143Y-16163978D01*
X6726619Y-16173502D01*
X6707571Y-16202073D01*
X6698048Y-16240168D01*
X6698048Y-16316359D01*
X6707571Y-16335407D01*
X6717095Y-16344930D01*
X6736143Y-16354454D01*
X6774238Y-16354454D01*
X6793286Y-16344930D01*
X6802809Y-16335407D01*
X6812333Y-16316359D01*
X6812333Y-16268740D01*
X6802809Y-16249692D01*
X6793286Y-16240168D01*
X6774238Y-16230645D01*
X6736143Y-16230645D01*
X6717095Y-16240168D01*
X6707571Y-16249692D01*
X6698048Y-16268740D01*
X7050428Y-16354454D02*
X7050428Y-16154454D01*
X7136143Y-16354454D02*
X7136143Y-16249692D01*
X7126619Y-16230645D01*
X7107571Y-16221121D01*
X7079000Y-16221121D01*
X7059952Y-16230645D01*
X7050428Y-16240168D01*
X7259952Y-16354454D02*
X7240905Y-16344930D01*
X7231381Y-16335407D01*
X7221857Y-16316359D01*
X7221857Y-16259216D01*
X7231381Y-16240168D01*
X7240905Y-16230645D01*
X7259952Y-16221121D01*
X7288524Y-16221121D01*
X7307571Y-16230645D01*
X7317095Y-16240168D01*
X7326619Y-16259216D01*
X7326619Y-16316359D01*
X7317095Y-16335407D01*
X7307571Y-16344930D01*
X7288524Y-16354454D01*
X7259952Y-16354454D01*
X7440905Y-16354454D02*
X7421857Y-16344930D01*
X7412333Y-16325883D01*
X7412333Y-16154454D01*
X7593286Y-16344930D02*
X7574238Y-16354454D01*
X7536143Y-16354454D01*
X7517095Y-16344930D01*
X7507571Y-16325883D01*
X7507571Y-16249692D01*
X7517095Y-16230645D01*
X7536143Y-16221121D01*
X7574238Y-16221121D01*
X7593286Y-16230645D01*
X7602809Y-16249692D01*
X7602809Y-16268740D01*
X7507571Y-16287788D01*
X7679000Y-16344930D02*
X7698048Y-16354454D01*
X7736143Y-16354454D01*
X7755190Y-16344930D01*
X7764714Y-16325883D01*
X7764714Y-16316359D01*
X7755190Y-16297311D01*
X7736143Y-16287788D01*
X7707571Y-16287788D01*
X7688524Y-16278264D01*
X7679000Y-16259216D01*
X7679000Y-16249692D01*
X7688524Y-16230645D01*
X7707571Y-16221121D01*
X7736143Y-16221121D01*
X7755190Y-16230645D01*
X7831381Y-16430645D02*
X7840905Y-16421121D01*
X7859952Y-16392549D01*
X7869476Y-16373502D01*
X7879000Y-16344930D01*
X7888524Y-16297311D01*
X7888524Y-16259216D01*
X7879000Y-16211597D01*
X7869476Y-16183026D01*
X7859952Y-16163978D01*
X7840905Y-16135407D01*
X7831381Y-16125883D01*
X8193286Y-16430645D02*
X8183762Y-16421121D01*
X8164714Y-16392549D01*
X8155190Y-16373502D01*
X8145667Y-16344930D01*
X8136143Y-16297311D01*
X8136143Y-16259216D01*
X8145667Y-16211597D01*
X8155190Y-16183026D01*
X8164714Y-16163978D01*
X8183762Y-16135407D01*
X8193286Y-16125883D01*
X8269476Y-16221121D02*
X8269476Y-16354454D01*
X8269476Y-16240168D02*
X8279000Y-16230645D01*
X8298048Y-16221121D01*
X8326619Y-16221121D01*
X8345667Y-16230645D01*
X8355190Y-16249692D01*
X8355190Y-16354454D01*
X8479000Y-16354454D02*
X8459952Y-16344930D01*
X8450429Y-16335407D01*
X8440905Y-16316359D01*
X8440905Y-16259216D01*
X8450429Y-16240168D01*
X8459952Y-16230645D01*
X8479000Y-16221121D01*
X8507571Y-16221121D01*
X8526619Y-16230645D01*
X8536143Y-16240168D01*
X8545667Y-16259216D01*
X8545667Y-16316359D01*
X8536143Y-16335407D01*
X8526619Y-16344930D01*
X8507571Y-16354454D01*
X8479000Y-16354454D01*
X8602810Y-16221121D02*
X8679000Y-16221121D01*
X8631381Y-16154454D02*
X8631381Y-16325883D01*
X8640905Y-16344930D01*
X8659952Y-16354454D01*
X8679000Y-16354454D01*
X8898048Y-16221121D02*
X8898048Y-16421121D01*
X8898048Y-16230645D02*
X8917095Y-16221121D01*
X8955190Y-16221121D01*
X8974238Y-16230645D01*
X8983762Y-16240168D01*
X8993286Y-16259216D01*
X8993286Y-16316359D01*
X8983762Y-16335407D01*
X8974238Y-16344930D01*
X8955190Y-16354454D01*
X8917095Y-16354454D01*
X8898048Y-16344930D01*
X9107571Y-16354454D02*
X9088524Y-16344930D01*
X9079000Y-16325883D01*
X9079000Y-16154454D01*
X9269476Y-16354454D02*
X9269476Y-16249692D01*
X9259952Y-16230645D01*
X9240905Y-16221121D01*
X9202810Y-16221121D01*
X9183762Y-16230645D01*
X9269476Y-16344930D02*
X9250429Y-16354454D01*
X9202810Y-16354454D01*
X9183762Y-16344930D01*
X9174238Y-16325883D01*
X9174238Y-16306835D01*
X9183762Y-16287788D01*
X9202810Y-16278264D01*
X9250429Y-16278264D01*
X9269476Y-16268740D01*
X9336143Y-16221121D02*
X9412333Y-16221121D01*
X9364714Y-16154454D02*
X9364714Y-16325883D01*
X9374238Y-16344930D01*
X9393286Y-16354454D01*
X9412333Y-16354454D01*
X9555190Y-16344930D02*
X9536143Y-16354454D01*
X9498048Y-16354454D01*
X9479000Y-16344930D01*
X9469476Y-16325883D01*
X9469476Y-16249692D01*
X9479000Y-16230645D01*
X9498048Y-16221121D01*
X9536143Y-16221121D01*
X9555190Y-16230645D01*
X9564714Y-16249692D01*
X9564714Y-16268740D01*
X9469476Y-16287788D01*
X9736143Y-16354454D02*
X9736143Y-16154454D01*
X9736143Y-16344930D02*
X9717095Y-16354454D01*
X9679000Y-16354454D01*
X9659952Y-16344930D01*
X9650429Y-16335407D01*
X9640905Y-16316359D01*
X9640905Y-16259216D01*
X9650429Y-16240168D01*
X9659952Y-16230645D01*
X9679000Y-16221121D01*
X9717095Y-16221121D01*
X9736143Y-16230645D01*
X9812333Y-16430645D02*
X9821857Y-16421121D01*
X9840905Y-16392549D01*
X9850429Y-16373502D01*
X9859952Y-16344930D01*
X9869476Y-16297311D01*
X9869476Y-16259216D01*
X9859952Y-16211597D01*
X9850429Y-16183026D01*
X9840905Y-16163978D01*
X9821857Y-16135407D01*
X9812333Y-16125883D01*
X2869000Y-16554158D02*
G75*
G03*
X2869000Y-16554158I-100000J0D01*
G01*
X3107571Y-16444634D02*
X3231381Y-16444634D01*
X3164714Y-16520825D01*
X3193286Y-16520825D01*
X3212333Y-16530348D01*
X3221857Y-16539872D01*
X3231381Y-16558920D01*
X3231381Y-16606539D01*
X3221857Y-16625587D01*
X3212333Y-16635110D01*
X3193286Y-16644634D01*
X3136143Y-16644634D01*
X3117095Y-16635110D01*
X3107571Y-16625587D01*
X3317095Y-16625587D02*
X3326619Y-16635110D01*
X3317095Y-16644634D01*
X3307571Y-16635110D01*
X3317095Y-16625587D01*
X3317095Y-16644634D01*
X3450428Y-16444634D02*
X3469476Y-16444634D01*
X3488524Y-16454158D01*
X3498048Y-16463682D01*
X3507571Y-16482729D01*
X3517095Y-16520825D01*
X3517095Y-16568444D01*
X3507571Y-16606539D01*
X3498048Y-16625587D01*
X3488524Y-16635110D01*
X3469476Y-16644634D01*
X3450428Y-16644634D01*
X3431381Y-16635110D01*
X3421857Y-16625587D01*
X3412333Y-16606539D01*
X3402809Y-16568444D01*
X3402809Y-16520825D01*
X3412333Y-16482729D01*
X3421857Y-16463682D01*
X3431381Y-16454158D01*
X3450428Y-16444634D01*
X3640905Y-16444634D02*
X3659952Y-16444634D01*
X3679000Y-16454158D01*
X3688524Y-16463682D01*
X3698048Y-16482729D01*
X3707571Y-16520825D01*
X3707571Y-16568444D01*
X3698048Y-16606539D01*
X3688524Y-16625587D01*
X3679000Y-16635110D01*
X3659952Y-16644634D01*
X3640905Y-16644634D01*
X3621857Y-16635110D01*
X3612333Y-16625587D01*
X3602809Y-16606539D01*
X3593286Y-16568444D01*
X3593286Y-16520825D01*
X3602809Y-16482729D01*
X3612333Y-16463682D01*
X3621857Y-16454158D01*
X3640905Y-16444634D01*
X3831381Y-16444634D02*
X3850428Y-16444634D01*
X3869476Y-16454158D01*
X3879000Y-16463682D01*
X3888524Y-16482729D01*
X3898048Y-16520825D01*
X3898048Y-16568444D01*
X3888524Y-16606539D01*
X3879000Y-16625587D01*
X3869476Y-16635110D01*
X3850428Y-16644634D01*
X3831381Y-16644634D01*
X3812333Y-16635110D01*
X3802809Y-16625587D01*
X3793286Y-16606539D01*
X3783762Y-16568444D01*
X3783762Y-16520825D01*
X3793286Y-16482729D01*
X3802809Y-16463682D01*
X3812333Y-16454158D01*
X3831381Y-16444634D01*
X3983762Y-16644634D02*
X3983762Y-16511301D01*
X3983762Y-16530348D02*
X3993286Y-16520825D01*
X4012333Y-16511301D01*
X4040905Y-16511301D01*
X4059952Y-16520825D01*
X4069476Y-16539872D01*
X4069476Y-16644634D01*
X4069476Y-16539872D02*
X4079000Y-16520825D01*
X4098048Y-16511301D01*
X4126619Y-16511301D01*
X4145667Y-16520825D01*
X4155190Y-16539872D01*
X4155190Y-16644634D01*
X4250429Y-16644634D02*
X4250429Y-16511301D01*
X4250429Y-16530348D02*
X4259952Y-16520825D01*
X4279000Y-16511301D01*
X4307571Y-16511301D01*
X4326619Y-16520825D01*
X4336143Y-16539872D01*
X4336143Y-16644634D01*
X4336143Y-16539872D02*
X4345667Y-16520825D01*
X4364714Y-16511301D01*
X4393286Y-16511301D01*
X4412333Y-16520825D01*
X4421857Y-16539872D01*
X4421857Y-16644634D01*
X4812333Y-16435110D02*
X4640905Y-16692253D01*
X5069476Y-16444634D02*
X5088524Y-16444634D01*
X5107571Y-16454158D01*
X5117095Y-16463682D01*
X5126619Y-16482729D01*
X5136143Y-16520825D01*
X5136143Y-16568444D01*
X5126619Y-16606539D01*
X5117095Y-16625587D01*
X5107571Y-16635110D01*
X5088524Y-16644634D01*
X5069476Y-16644634D01*
X5050429Y-16635110D01*
X5040905Y-16625587D01*
X5031381Y-16606539D01*
X5021857Y-16568444D01*
X5021857Y-16520825D01*
X5031381Y-16482729D01*
X5040905Y-16463682D01*
X5050429Y-16454158D01*
X5069476Y-16444634D01*
X5221857Y-16625587D02*
X5231381Y-16635110D01*
X5221857Y-16644634D01*
X5212333Y-16635110D01*
X5221857Y-16625587D01*
X5221857Y-16644634D01*
X5421857Y-16644634D02*
X5307571Y-16644634D01*
X5364714Y-16644634D02*
X5364714Y-16444634D01*
X5345667Y-16473206D01*
X5326619Y-16492253D01*
X5307571Y-16501777D01*
X5612333Y-16644634D02*
X5498048Y-16644634D01*
X5555190Y-16644634D02*
X5555190Y-16444634D01*
X5536143Y-16473206D01*
X5517095Y-16492253D01*
X5498048Y-16501777D01*
X5726619Y-16530348D02*
X5707571Y-16520825D01*
X5698048Y-16511301D01*
X5688524Y-16492253D01*
X5688524Y-16482729D01*
X5698048Y-16463682D01*
X5707571Y-16454158D01*
X5726619Y-16444634D01*
X5764714Y-16444634D01*
X5783762Y-16454158D01*
X5793286Y-16463682D01*
X5802809Y-16482729D01*
X5802809Y-16492253D01*
X5793286Y-16511301D01*
X5783762Y-16520825D01*
X5764714Y-16530348D01*
X5726619Y-16530348D01*
X5707571Y-16539872D01*
X5698048Y-16549396D01*
X5688524Y-16568444D01*
X5688524Y-16606539D01*
X5698048Y-16625587D01*
X5707571Y-16635110D01*
X5726619Y-16644634D01*
X5764714Y-16644634D01*
X5783762Y-16635110D01*
X5793286Y-16625587D01*
X5802809Y-16606539D01*
X5802809Y-16568444D01*
X5793286Y-16549396D01*
X5783762Y-16539872D01*
X5764714Y-16530348D01*
X5993286Y-16644634D02*
X5879000Y-16644634D01*
X5936143Y-16644634D02*
X5936143Y-16444634D01*
X5917095Y-16473206D01*
X5898048Y-16492253D01*
X5879000Y-16501777D01*
X6069476Y-16444634D02*
X6069476Y-16482729D01*
X6145667Y-16444634D02*
X6145667Y-16482729D01*
X6440905Y-16720825D02*
X6431381Y-16711301D01*
X6412333Y-16682729D01*
X6402809Y-16663682D01*
X6393286Y-16635110D01*
X6383762Y-16587491D01*
X6383762Y-16549396D01*
X6393286Y-16501777D01*
X6402809Y-16473206D01*
X6412333Y-16454158D01*
X6431381Y-16425587D01*
X6440905Y-16416063D01*
X6526619Y-16644634D02*
X6564714Y-16644634D01*
X6583762Y-16635110D01*
X6593286Y-16625587D01*
X6612333Y-16597015D01*
X6621857Y-16558920D01*
X6621857Y-16482729D01*
X6612333Y-16463682D01*
X6602809Y-16454158D01*
X6583762Y-16444634D01*
X6545667Y-16444634D01*
X6526619Y-16454158D01*
X6517095Y-16463682D01*
X6507571Y-16482729D01*
X6507571Y-16530348D01*
X6517095Y-16549396D01*
X6526619Y-16558920D01*
X6545667Y-16568444D01*
X6583762Y-16568444D01*
X6602809Y-16558920D01*
X6612333Y-16549396D01*
X6621857Y-16530348D01*
X6698048Y-16463682D02*
X6707571Y-16454158D01*
X6726619Y-16444634D01*
X6774238Y-16444634D01*
X6793286Y-16454158D01*
X6802809Y-16463682D01*
X6812333Y-16482729D01*
X6812333Y-16501777D01*
X6802809Y-16530348D01*
X6688524Y-16644634D01*
X6812333Y-16644634D01*
X7050428Y-16644634D02*
X7050428Y-16444634D01*
X7136143Y-16644634D02*
X7136143Y-16539872D01*
X7126619Y-16520825D01*
X7107571Y-16511301D01*
X7079000Y-16511301D01*
X7059952Y-16520825D01*
X7050428Y-16530348D01*
X7259952Y-16644634D02*
X7240905Y-16635110D01*
X7231381Y-16625587D01*
X7221857Y-16606539D01*
X7221857Y-16549396D01*
X7231381Y-16530348D01*
X7240905Y-16520825D01*
X7259952Y-16511301D01*
X7288524Y-16511301D01*
X7307571Y-16520825D01*
X7317095Y-16530348D01*
X7326619Y-16549396D01*
X7326619Y-16606539D01*
X7317095Y-16625587D01*
X7307571Y-16635110D01*
X7288524Y-16644634D01*
X7259952Y-16644634D01*
X7440905Y-16644634D02*
X7421857Y-16635110D01*
X7412333Y-16616063D01*
X7412333Y-16444634D01*
X7593286Y-16635110D02*
X7574238Y-16644634D01*
X7536143Y-16644634D01*
X7517095Y-16635110D01*
X7507571Y-16616063D01*
X7507571Y-16539872D01*
X7517095Y-16520825D01*
X7536143Y-16511301D01*
X7574238Y-16511301D01*
X7593286Y-16520825D01*
X7602809Y-16539872D01*
X7602809Y-16558920D01*
X7507571Y-16577968D01*
X7679000Y-16635110D02*
X7698048Y-16644634D01*
X7736143Y-16644634D01*
X7755190Y-16635110D01*
X7764714Y-16616063D01*
X7764714Y-16606539D01*
X7755190Y-16587491D01*
X7736143Y-16577968D01*
X7707571Y-16577968D01*
X7688524Y-16568444D01*
X7679000Y-16549396D01*
X7679000Y-16539872D01*
X7688524Y-16520825D01*
X7707571Y-16511301D01*
X7736143Y-16511301D01*
X7755190Y-16520825D01*
X7831381Y-16720825D02*
X7840905Y-16711301D01*
X7859952Y-16682729D01*
X7869476Y-16663682D01*
X7879000Y-16635110D01*
X7888524Y-16587491D01*
X7888524Y-16549396D01*
X7879000Y-16501777D01*
X7869476Y-16473206D01*
X7859952Y-16454158D01*
X7840905Y-16425587D01*
X7831381Y-16416063D01*
X8193286Y-16720825D02*
X8183762Y-16711301D01*
X8164714Y-16682729D01*
X8155190Y-16663682D01*
X8145667Y-16635110D01*
X8136143Y-16587491D01*
X8136143Y-16549396D01*
X8145667Y-16501777D01*
X8155190Y-16473206D01*
X8164714Y-16454158D01*
X8183762Y-16425587D01*
X8193286Y-16416063D01*
X8269476Y-16511301D02*
X8269476Y-16644634D01*
X8269476Y-16530348D02*
X8279000Y-16520825D01*
X8298048Y-16511301D01*
X8326619Y-16511301D01*
X8345667Y-16520825D01*
X8355190Y-16539872D01*
X8355190Y-16644634D01*
X8479000Y-16644634D02*
X8459952Y-16635110D01*
X8450429Y-16625587D01*
X8440905Y-16606539D01*
X8440905Y-16549396D01*
X8450429Y-16530348D01*
X8459952Y-16520825D01*
X8479000Y-16511301D01*
X8507571Y-16511301D01*
X8526619Y-16520825D01*
X8536143Y-16530348D01*
X8545667Y-16549396D01*
X8545667Y-16606539D01*
X8536143Y-16625587D01*
X8526619Y-16635110D01*
X8507571Y-16644634D01*
X8479000Y-16644634D01*
X8602810Y-16511301D02*
X8679000Y-16511301D01*
X8631381Y-16444634D02*
X8631381Y-16616063D01*
X8640905Y-16635110D01*
X8659952Y-16644634D01*
X8679000Y-16644634D01*
X8898048Y-16511301D02*
X8898048Y-16711301D01*
X8898048Y-16520825D02*
X8917095Y-16511301D01*
X8955190Y-16511301D01*
X8974238Y-16520825D01*
X8983762Y-16530348D01*
X8993286Y-16549396D01*
X8993286Y-16606539D01*
X8983762Y-16625587D01*
X8974238Y-16635110D01*
X8955190Y-16644634D01*
X8917095Y-16644634D01*
X8898048Y-16635110D01*
X9107571Y-16644634D02*
X9088524Y-16635110D01*
X9079000Y-16616063D01*
X9079000Y-16444634D01*
X9269476Y-16644634D02*
X9269476Y-16539872D01*
X9259952Y-16520825D01*
X9240905Y-16511301D01*
X9202810Y-16511301D01*
X9183762Y-16520825D01*
X9269476Y-16635110D02*
X9250429Y-16644634D01*
X9202810Y-16644634D01*
X9183762Y-16635110D01*
X9174238Y-16616063D01*
X9174238Y-16597015D01*
X9183762Y-16577968D01*
X9202810Y-16568444D01*
X9250429Y-16568444D01*
X9269476Y-16558920D01*
X9336143Y-16511301D02*
X9412333Y-16511301D01*
X9364714Y-16444634D02*
X9364714Y-16616063D01*
X9374238Y-16635110D01*
X9393286Y-16644634D01*
X9412333Y-16644634D01*
X9555190Y-16635110D02*
X9536143Y-16644634D01*
X9498048Y-16644634D01*
X9479000Y-16635110D01*
X9469476Y-16616063D01*
X9469476Y-16539872D01*
X9479000Y-16520825D01*
X9498048Y-16511301D01*
X9536143Y-16511301D01*
X9555190Y-16520825D01*
X9564714Y-16539872D01*
X9564714Y-16558920D01*
X9469476Y-16577968D01*
X9736143Y-16644634D02*
X9736143Y-16444634D01*
X9736143Y-16635110D02*
X9717095Y-16644634D01*
X9679000Y-16644634D01*
X9659952Y-16635110D01*
X9650429Y-16625587D01*
X9640905Y-16606539D01*
X9640905Y-16549396D01*
X9650429Y-16530348D01*
X9659952Y-16520825D01*
X9679000Y-16511301D01*
X9717095Y-16511301D01*
X9736143Y-16520825D01*
X9812333Y-16720825D02*
X9821857Y-16711301D01*
X9840905Y-16682729D01*
X9850429Y-16663682D01*
X9859952Y-16635110D01*
X9869476Y-16587491D01*
X9869476Y-16549396D01*
X9859952Y-16501777D01*
X9850429Y-16473206D01*
X9840905Y-16454158D01*
X9821857Y-16425587D01*
X9812333Y-16416063D01*
X2769000Y-16774158D02*
X2769000Y-16974158D01*
X2669000Y-16874158D02*
X2869000Y-16874158D01*
X3107571Y-16764634D02*
X3231381Y-16764634D01*
X3164714Y-16840825D01*
X3193286Y-16840825D01*
X3212333Y-16850349D01*
X3221857Y-16859872D01*
X3231381Y-16878920D01*
X3231381Y-16926539D01*
X3221857Y-16945587D01*
X3212333Y-16955110D01*
X3193286Y-16964634D01*
X3136143Y-16964634D01*
X3117095Y-16955110D01*
X3107571Y-16945587D01*
X3317095Y-16945587D02*
X3326619Y-16955110D01*
X3317095Y-16964634D01*
X3307571Y-16955110D01*
X3317095Y-16945587D01*
X3317095Y-16964634D01*
X3498048Y-16831301D02*
X3498048Y-16964634D01*
X3450428Y-16755110D02*
X3402809Y-16897968D01*
X3526619Y-16897968D01*
X3593286Y-16783682D02*
X3602809Y-16774158D01*
X3621857Y-16764634D01*
X3669476Y-16764634D01*
X3688524Y-16774158D01*
X3698048Y-16783682D01*
X3707571Y-16802730D01*
X3707571Y-16821777D01*
X3698048Y-16850349D01*
X3583762Y-16964634D01*
X3707571Y-16964634D01*
X3802809Y-16964634D02*
X3840905Y-16964634D01*
X3859952Y-16955110D01*
X3869476Y-16945587D01*
X3888524Y-16917015D01*
X3898048Y-16878920D01*
X3898048Y-16802730D01*
X3888524Y-16783682D01*
X3879000Y-16774158D01*
X3859952Y-16764634D01*
X3821857Y-16764634D01*
X3802809Y-16774158D01*
X3793286Y-16783682D01*
X3783762Y-16802730D01*
X3783762Y-16850349D01*
X3793286Y-16869396D01*
X3802809Y-16878920D01*
X3821857Y-16888444D01*
X3859952Y-16888444D01*
X3879000Y-16878920D01*
X3888524Y-16869396D01*
X3898048Y-16850349D01*
X3983762Y-16964634D02*
X3983762Y-16831301D01*
X3983762Y-16850349D02*
X3993286Y-16840825D01*
X4012333Y-16831301D01*
X4040905Y-16831301D01*
X4059952Y-16840825D01*
X4069476Y-16859872D01*
X4069476Y-16964634D01*
X4069476Y-16859872D02*
X4079000Y-16840825D01*
X4098048Y-16831301D01*
X4126619Y-16831301D01*
X4145667Y-16840825D01*
X4155190Y-16859872D01*
X4155190Y-16964634D01*
X4250429Y-16964634D02*
X4250429Y-16831301D01*
X4250429Y-16850349D02*
X4259952Y-16840825D01*
X4279000Y-16831301D01*
X4307571Y-16831301D01*
X4326619Y-16840825D01*
X4336143Y-16859872D01*
X4336143Y-16964634D01*
X4336143Y-16859872D02*
X4345667Y-16840825D01*
X4364714Y-16831301D01*
X4393286Y-16831301D01*
X4412333Y-16840825D01*
X4421857Y-16859872D01*
X4421857Y-16964634D01*
X4812333Y-16755110D02*
X4640905Y-17012253D01*
X5069476Y-16764634D02*
X5088524Y-16764634D01*
X5107571Y-16774158D01*
X5117095Y-16783682D01*
X5126619Y-16802730D01*
X5136143Y-16840825D01*
X5136143Y-16888444D01*
X5126619Y-16926539D01*
X5117095Y-16945587D01*
X5107571Y-16955110D01*
X5088524Y-16964634D01*
X5069476Y-16964634D01*
X5050429Y-16955110D01*
X5040905Y-16945587D01*
X5031381Y-16926539D01*
X5021857Y-16888444D01*
X5021857Y-16840825D01*
X5031381Y-16802730D01*
X5040905Y-16783682D01*
X5050429Y-16774158D01*
X5069476Y-16764634D01*
X5221857Y-16945587D02*
X5231381Y-16955110D01*
X5221857Y-16964634D01*
X5212333Y-16955110D01*
X5221857Y-16945587D01*
X5221857Y-16964634D01*
X5421857Y-16964634D02*
X5307571Y-16964634D01*
X5364714Y-16964634D02*
X5364714Y-16764634D01*
X5345667Y-16793206D01*
X5326619Y-16812253D01*
X5307571Y-16821777D01*
X5488524Y-16764634D02*
X5612333Y-16764634D01*
X5545667Y-16840825D01*
X5574238Y-16840825D01*
X5593286Y-16850349D01*
X5602809Y-16859872D01*
X5612333Y-16878920D01*
X5612333Y-16926539D01*
X5602809Y-16945587D01*
X5593286Y-16955110D01*
X5574238Y-16964634D01*
X5517095Y-16964634D01*
X5498048Y-16955110D01*
X5488524Y-16945587D01*
X5793286Y-16764634D02*
X5698048Y-16764634D01*
X5688524Y-16859872D01*
X5698048Y-16850349D01*
X5717095Y-16840825D01*
X5764714Y-16840825D01*
X5783762Y-16850349D01*
X5793286Y-16859872D01*
X5802809Y-16878920D01*
X5802809Y-16926539D01*
X5793286Y-16945587D01*
X5783762Y-16955110D01*
X5764714Y-16964634D01*
X5717095Y-16964634D01*
X5698048Y-16955110D01*
X5688524Y-16945587D01*
X5926619Y-16764634D02*
X5945667Y-16764634D01*
X5964714Y-16774158D01*
X5974238Y-16783682D01*
X5983762Y-16802730D01*
X5993286Y-16840825D01*
X5993286Y-16888444D01*
X5983762Y-16926539D01*
X5974238Y-16945587D01*
X5964714Y-16955110D01*
X5945667Y-16964634D01*
X5926619Y-16964634D01*
X5907571Y-16955110D01*
X5898048Y-16945587D01*
X5888524Y-16926539D01*
X5879000Y-16888444D01*
X5879000Y-16840825D01*
X5888524Y-16802730D01*
X5898048Y-16783682D01*
X5907571Y-16774158D01*
X5926619Y-16764634D01*
X6069476Y-16764634D02*
X6069476Y-16802730D01*
X6145667Y-16764634D02*
X6145667Y-16802730D01*
X6440905Y-17040825D02*
X6431381Y-17031301D01*
X6412333Y-17002730D01*
X6402809Y-16983682D01*
X6393286Y-16955110D01*
X6383762Y-16907491D01*
X6383762Y-16869396D01*
X6393286Y-16821777D01*
X6402809Y-16793206D01*
X6412333Y-16774158D01*
X6431381Y-16745587D01*
X6440905Y-16736063D01*
X6507571Y-16783682D02*
X6517095Y-16774158D01*
X6536143Y-16764634D01*
X6583762Y-16764634D01*
X6602809Y-16774158D01*
X6612333Y-16783682D01*
X6621857Y-16802730D01*
X6621857Y-16821777D01*
X6612333Y-16850349D01*
X6498048Y-16964634D01*
X6621857Y-16964634D01*
X6688524Y-16764634D02*
X6812333Y-16764634D01*
X6745667Y-16840825D01*
X6774238Y-16840825D01*
X6793286Y-16850349D01*
X6802809Y-16859872D01*
X6812333Y-16878920D01*
X6812333Y-16926539D01*
X6802809Y-16945587D01*
X6793286Y-16955110D01*
X6774238Y-16964634D01*
X6717095Y-16964634D01*
X6698048Y-16955110D01*
X6688524Y-16945587D01*
X7050428Y-16964634D02*
X7050428Y-16764634D01*
X7136143Y-16964634D02*
X7136143Y-16859872D01*
X7126619Y-16840825D01*
X7107571Y-16831301D01*
X7079000Y-16831301D01*
X7059952Y-16840825D01*
X7050428Y-16850349D01*
X7259952Y-16964634D02*
X7240905Y-16955110D01*
X7231381Y-16945587D01*
X7221857Y-16926539D01*
X7221857Y-16869396D01*
X7231381Y-16850349D01*
X7240905Y-16840825D01*
X7259952Y-16831301D01*
X7288524Y-16831301D01*
X7307571Y-16840825D01*
X7317095Y-16850349D01*
X7326619Y-16869396D01*
X7326619Y-16926539D01*
X7317095Y-16945587D01*
X7307571Y-16955110D01*
X7288524Y-16964634D01*
X7259952Y-16964634D01*
X7440905Y-16964634D02*
X7421857Y-16955110D01*
X7412333Y-16936063D01*
X7412333Y-16764634D01*
X7593286Y-16955110D02*
X7574238Y-16964634D01*
X7536143Y-16964634D01*
X7517095Y-16955110D01*
X7507571Y-16936063D01*
X7507571Y-16859872D01*
X7517095Y-16840825D01*
X7536143Y-16831301D01*
X7574238Y-16831301D01*
X7593286Y-16840825D01*
X7602809Y-16859872D01*
X7602809Y-16878920D01*
X7507571Y-16897968D01*
X7679000Y-16955110D02*
X7698048Y-16964634D01*
X7736143Y-16964634D01*
X7755190Y-16955110D01*
X7764714Y-16936063D01*
X7764714Y-16926539D01*
X7755190Y-16907491D01*
X7736143Y-16897968D01*
X7707571Y-16897968D01*
X7688524Y-16888444D01*
X7679000Y-16869396D01*
X7679000Y-16859872D01*
X7688524Y-16840825D01*
X7707571Y-16831301D01*
X7736143Y-16831301D01*
X7755190Y-16840825D01*
X7831381Y-17040825D02*
X7840905Y-17031301D01*
X7859952Y-17002730D01*
X7869476Y-16983682D01*
X7879000Y-16955110D01*
X7888524Y-16907491D01*
X7888524Y-16869396D01*
X7879000Y-16821777D01*
X7869476Y-16793206D01*
X7859952Y-16774158D01*
X7840905Y-16745587D01*
X7831381Y-16736063D01*
X8193286Y-17040825D02*
X8183762Y-17031301D01*
X8164714Y-17002730D01*
X8155190Y-16983682D01*
X8145667Y-16955110D01*
X8136143Y-16907491D01*
X8136143Y-16869396D01*
X8145667Y-16821777D01*
X8155190Y-16793206D01*
X8164714Y-16774158D01*
X8183762Y-16745587D01*
X8193286Y-16736063D01*
X8269476Y-16831301D02*
X8269476Y-16964634D01*
X8269476Y-16850349D02*
X8279000Y-16840825D01*
X8298048Y-16831301D01*
X8326619Y-16831301D01*
X8345667Y-16840825D01*
X8355190Y-16859872D01*
X8355190Y-16964634D01*
X8479000Y-16964634D02*
X8459952Y-16955110D01*
X8450429Y-16945587D01*
X8440905Y-16926539D01*
X8440905Y-16869396D01*
X8450429Y-16850349D01*
X8459952Y-16840825D01*
X8479000Y-16831301D01*
X8507571Y-16831301D01*
X8526619Y-16840825D01*
X8536143Y-16850349D01*
X8545667Y-16869396D01*
X8545667Y-16926539D01*
X8536143Y-16945587D01*
X8526619Y-16955110D01*
X8507571Y-16964634D01*
X8479000Y-16964634D01*
X8602810Y-16831301D02*
X8679000Y-16831301D01*
X8631381Y-16764634D02*
X8631381Y-16936063D01*
X8640905Y-16955110D01*
X8659952Y-16964634D01*
X8679000Y-16964634D01*
X8898048Y-16831301D02*
X8898048Y-17031301D01*
X8898048Y-16840825D02*
X8917095Y-16831301D01*
X8955190Y-16831301D01*
X8974238Y-16840825D01*
X8983762Y-16850349D01*
X8993286Y-16869396D01*
X8993286Y-16926539D01*
X8983762Y-16945587D01*
X8974238Y-16955110D01*
X8955190Y-16964634D01*
X8917095Y-16964634D01*
X8898048Y-16955110D01*
X9107571Y-16964634D02*
X9088524Y-16955110D01*
X9079000Y-16936063D01*
X9079000Y-16764634D01*
X9269476Y-16964634D02*
X9269476Y-16859872D01*
X9259952Y-16840825D01*
X9240905Y-16831301D01*
X9202810Y-16831301D01*
X9183762Y-16840825D01*
X9269476Y-16955110D02*
X9250429Y-16964634D01*
X9202810Y-16964634D01*
X9183762Y-16955110D01*
X9174238Y-16936063D01*
X9174238Y-16917015D01*
X9183762Y-16897968D01*
X9202810Y-16888444D01*
X9250429Y-16888444D01*
X9269476Y-16878920D01*
X9336143Y-16831301D02*
X9412333Y-16831301D01*
X9364714Y-16764634D02*
X9364714Y-16936063D01*
X9374238Y-16955110D01*
X9393286Y-16964634D01*
X9412333Y-16964634D01*
X9555190Y-16955110D02*
X9536143Y-16964634D01*
X9498048Y-16964634D01*
X9479000Y-16955110D01*
X9469476Y-16936063D01*
X9469476Y-16859872D01*
X9479000Y-16840825D01*
X9498048Y-16831301D01*
X9536143Y-16831301D01*
X9555190Y-16840825D01*
X9564714Y-16859872D01*
X9564714Y-16878920D01*
X9469476Y-16897968D01*
X9736143Y-16964634D02*
X9736143Y-16764634D01*
X9736143Y-16955110D02*
X9717095Y-16964634D01*
X9679000Y-16964634D01*
X9659952Y-16955110D01*
X9650429Y-16945587D01*
X9640905Y-16926539D01*
X9640905Y-16869396D01*
X9650429Y-16850349D01*
X9659952Y-16840825D01*
X9679000Y-16831301D01*
X9717095Y-16831301D01*
X9736143Y-16840825D01*
X9812333Y-17040825D02*
X9821857Y-17031301D01*
X9840905Y-17002730D01*
X9850429Y-16983682D01*
X9859952Y-16955110D01*
X9869476Y-16907491D01*
X9869476Y-16869396D01*
X9859952Y-16821777D01*
X9850429Y-16793206D01*
X9840905Y-16774158D01*
X9821857Y-16745587D01*
X9812333Y-16736063D01*
M02*
