%TF.GenerationSoftware,KiCad,Pcbnew,6.0.2+dfsg-1*%
%TF.CreationDate,2022-12-14T23:59:31+01:00*%
%TF.ProjectId,yackboard-routed-4,7961636b-626f-4617-9264-2d726f757465,v1.0.0*%
%TF.SameCoordinates,Original*%
%TF.FileFunction,Copper,L1,Top*%
%TF.FilePolarity,Positive*%
%FSLAX46Y46*%
G04 Gerber Fmt 4.6, Leading zero omitted, Abs format (unit mm)*
G04 Created by KiCad (PCBNEW 6.0.2+dfsg-1) date 2022-12-14 23:59:31*
%MOMM*%
%LPD*%
G01*
G04 APERTURE LIST*
G04 Aperture macros list*
%AMRotRect*
0 Rectangle, with rotation*
0 The origin of the aperture is its center*
0 $1 length*
0 $2 width*
0 $3 Rotation angle, in degrees counterclockwise*
0 Add horizontal line*
21,1,$1,$2,0,0,$3*%
%AMFreePoly0*
4,1,6,0.600000,0.200000,0.000000,-0.400000,-0.600000,0.200000,-0.600000,0.400000,0.600000,0.400000,0.600000,0.200000,0.600000,0.200000,$1*%
%AMFreePoly1*
4,1,5,0.125000,-0.500000,-0.125000,-0.500000,-0.125000,0.500000,0.125000,0.500000,0.125000,-0.500000,0.125000,-0.500000,$1*%
%AMFreePoly2*
4,1,49,0.088388,4.152388,0.854389,3.386388,0.867708,3.368551,0.871189,3.365530,0.871982,3.362827,0.875852,3.357644,0.882333,3.327543,0.891000,3.298000,0.891000,0.766000,0.887805,0.743969,0.888131,0.739371,0.886780,0.736898,0.885852,0.730498,0.869154,0.704638,0.854389,0.677612,0.088388,-0.088388,0.064607,-0.106146,0.062500,-0.108253,0.061385,-0.108552,0.059644,-0.109852,
0.043810,-0.113261,0.000000,-0.125000,-0.004774,-0.123721,-0.009154,-0.124664,-0.028953,-0.117242,-0.062500,-0.108253,-0.068237,-0.102516,-0.075052,-0.099961,-0.087614,-0.083139,-0.108253,-0.062500,-0.111178,-0.051584,-0.117161,-0.043572,-0.118539,-0.024114,-0.125000,0.000000,-0.121239,0.014035,-0.122131,0.026629,-0.113759,0.041953,-0.108253,0.062500,-0.095642,0.075111,-0.088388,0.088388,
0.641000,0.817777,0.641000,3.246223,-0.088388,3.975612,-0.109852,4.004356,-0.124664,4.073154,-0.099961,4.139052,-0.043572,4.181161,0.026629,4.186131,0.088388,4.152388,0.088388,4.152388,$1*%
%AMFreePoly3*
4,1,6,0.600000,-0.250000,-0.600000,-0.250000,-0.600000,1.000000,0.000000,0.400000,0.600000,1.000000,0.600000,-0.250000,0.600000,-0.250000,$1*%
%AMFreePoly4*
4,1,49,0.088388,4.152388,0.850389,3.390388,0.863708,3.372551,0.867189,3.369530,0.867982,3.366827,0.871852,3.361644,0.878333,3.331543,0.887000,3.302000,0.887000,0.762000,0.883805,0.739969,0.884131,0.735371,0.882780,0.732898,0.881852,0.726498,0.865154,0.700638,0.850389,0.673612,0.088388,-0.088388,0.064607,-0.106146,0.062500,-0.108253,0.061385,-0.108552,0.059644,-0.109852,
0.043810,-0.113261,0.000000,-0.125000,-0.004774,-0.123721,-0.009154,-0.124664,-0.028953,-0.117242,-0.062500,-0.108253,-0.068237,-0.102516,-0.075052,-0.099961,-0.087614,-0.083139,-0.108253,-0.062500,-0.111178,-0.051584,-0.117161,-0.043572,-0.118539,-0.024114,-0.125000,0.000000,-0.121239,0.014035,-0.122131,0.026629,-0.113759,0.041953,-0.108253,0.062500,-0.095642,0.075111,-0.088388,0.088388,
0.637000,0.813777,0.637000,3.250223,-0.088388,3.975612,-0.109852,4.004356,-0.124664,4.073154,-0.099961,4.139052,-0.043572,4.181161,0.026629,4.186131,0.088388,4.152388,0.088388,4.152388,$1*%
G04 Aperture macros list end*
%TA.AperFunction,ComponentPad*%
%ADD10C,0.600000*%
%TD*%
%TA.AperFunction,ComponentPad*%
%ADD11C,1.650000*%
%TD*%
%TA.AperFunction,ComponentPad*%
%ADD12C,1.524000*%
%TD*%
%TA.AperFunction,ComponentPad*%
%ADD13C,1.905000*%
%TD*%
%TA.AperFunction,SMDPad,CuDef*%
%ADD14RotRect,0.900000X1.200000X356.000000*%
%TD*%
%TA.AperFunction,ComponentPad*%
%ADD15RotRect,1.778000X1.778000X356.000000*%
%TD*%
%TA.AperFunction,SMDPad,CuDef*%
%ADD16RotRect,2.600000X2.600000X174.000000*%
%TD*%
%TA.AperFunction,SMDPad,CuDef*%
%ADD17RotRect,2.600000X2.600000X85.000000*%
%TD*%
%TA.AperFunction,SMDPad,CuDef*%
%ADD18RotRect,2.600000X2.600000X176.000000*%
%TD*%
%TA.AperFunction,SMDPad,CuDef*%
%ADD19RotRect,0.900000X1.200000X354.000000*%
%TD*%
%TA.AperFunction,ComponentPad*%
%ADD20RotRect,1.778000X1.778000X354.000000*%
%TD*%
%TA.AperFunction,SMDPad,CuDef*%
%ADD21RotRect,2.600000X2.600000X184.000000*%
%TD*%
%TA.AperFunction,SMDPad,CuDef*%
%ADD22RotRect,0.900000X1.200000X4.000000*%
%TD*%
%TA.AperFunction,ComponentPad*%
%ADD23RotRect,1.778000X1.778000X4.000000*%
%TD*%
%TA.AperFunction,SMDPad,CuDef*%
%ADD24R,2.600000X2.600000*%
%TD*%
%TA.AperFunction,ComponentPad*%
%ADD25C,1.600000*%
%TD*%
%TA.AperFunction,SMDPad,CuDef*%
%ADD26FreePoly0,0.000000*%
%TD*%
%TA.AperFunction,SMDPad,CuDef*%
%ADD27FreePoly1,0.000000*%
%TD*%
%TA.AperFunction,SMDPad,CuDef*%
%ADD28FreePoly1,180.000000*%
%TD*%
%TA.AperFunction,SMDPad,CuDef*%
%ADD29FreePoly0,180.000000*%
%TD*%
%TA.AperFunction,ComponentPad*%
%ADD30R,1.600000X1.600000*%
%TD*%
%TA.AperFunction,SMDPad,CuDef*%
%ADD31FreePoly2,180.000000*%
%TD*%
%TA.AperFunction,SMDPad,CuDef*%
%ADD32FreePoly3,180.000000*%
%TD*%
%TA.AperFunction,ComponentPad*%
%ADD33C,0.800000*%
%TD*%
%TA.AperFunction,SMDPad,CuDef*%
%ADD34FreePoly4,0.000000*%
%TD*%
%TA.AperFunction,SMDPad,CuDef*%
%ADD35FreePoly3,0.000000*%
%TD*%
%TA.AperFunction,ComponentPad*%
%ADD36C,3.300000*%
%TD*%
%TA.AperFunction,SMDPad,CuDef*%
%ADD37RotRect,2.600000X2.600000X99.000000*%
%TD*%
%TA.AperFunction,SMDPad,CuDef*%
%ADD38R,0.900000X1.200000*%
%TD*%
%TA.AperFunction,ComponentPad*%
%ADD39R,1.778000X1.778000*%
%TD*%
%TA.AperFunction,SMDPad,CuDef*%
%ADD40RotRect,0.900000X1.200000X279.000000*%
%TD*%
%TA.AperFunction,ComponentPad*%
%ADD41RotRect,1.778000X1.778000X279.000000*%
%TD*%
%TA.AperFunction,SMDPad,CuDef*%
%ADD42RotRect,0.900000X1.200000X237.000000*%
%TD*%
%TA.AperFunction,ComponentPad*%
%ADD43RotRect,1.778000X1.778000X237.000000*%
%TD*%
%TA.AperFunction,SMDPad,CuDef*%
%ADD44RotRect,2.600000X2.600000X43.000000*%
%TD*%
%TA.AperFunction,SMDPad,CuDef*%
%ADD45RotRect,2.600000X2.600000X182.000000*%
%TD*%
%TA.AperFunction,ComponentPad*%
%ADD46C,2.800000*%
%TD*%
%TA.AperFunction,SMDPad,CuDef*%
%ADD47RotRect,0.900000X1.200000X2.000000*%
%TD*%
%TA.AperFunction,ComponentPad*%
%ADD48RotRect,1.778000X1.778000X2.000000*%
%TD*%
%TA.AperFunction,SMDPad,CuDef*%
%ADD49RotRect,0.900000X1.200000X265.000000*%
%TD*%
%TA.AperFunction,ComponentPad*%
%ADD50RotRect,1.778000X1.778000X265.000000*%
%TD*%
%TA.AperFunction,SMDPad,CuDef*%
%ADD51RotRect,2.600000X2.600000X71.000000*%
%TD*%
%TA.AperFunction,SMDPad,CuDef*%
%ADD52RotRect,0.900000X1.200000X223.000000*%
%TD*%
%TA.AperFunction,ComponentPad*%
%ADD53RotRect,1.778000X1.778000X223.000000*%
%TD*%
%TA.AperFunction,SMDPad,CuDef*%
%ADD54RotRect,2.600000X2.600000X57.000000*%
%TD*%
%TA.AperFunction,SMDPad,CuDef*%
%ADD55RotRect,0.900000X1.200000X251.000000*%
%TD*%
%TA.AperFunction,ComponentPad*%
%ADD56RotRect,1.778000X1.778000X251.000000*%
%TD*%
%TA.AperFunction,Conductor*%
%ADD57C,0.250000*%
%TD*%
G04 APERTURE END LIST*
D10*
%TO.P,REF\u002A\u002A,1*%
%TO.N,P16*%
X48241481Y-65561283D03*
%TD*%
D11*
%TO.P,BAT,1*%
%TO.N,BAT*%
X93985000Y-33655000D03*
%TO.P,BAT,2*%
%TO.N,GND*%
X93985000Y-36195000D03*
%TD*%
D10*
%TO.P,REF\u002A\u002A,1*%
%TO.N,P18*%
X74834411Y-97540577D03*
%TD*%
%TO.P,REF\u002A\u002A,1*%
%TO.N,middle_bottom*%
X111765000Y-82585000D03*
%TD*%
%TO.P,REF\u002A\u002A,1*%
%TO.N,P15*%
X131357930Y-80605706D03*
%TD*%
D12*
%TO.P,,1*%
%TO.N,RAW*%
X192405000Y-34925000D03*
%TO.P,,2*%
%TO.N,BAT*%
X189865000Y-34925000D03*
%TO.P,,3*%
X187325000Y-34925000D03*
%TD*%
D13*
%TO.P,D13,1*%
%TO.N,index1_bottom*%
X134914501Y-84362952D03*
D14*
%TO.N,P8*%
X129467801Y-83982082D03*
D15*
%TO.P,D13,2*%
X127313063Y-83831408D03*
D14*
%TO.N,index1_bottom*%
X132759763Y-84212278D03*
%TD*%
D10*
%TO.P,REF\u002A\u002A,1*%
%TO.N,pinkie2_bottom*%
X48241481Y-94561283D03*
%TD*%
D16*
%TO.P,S17,1*%
%TO.N,P15*%
X147546940Y-80076140D03*
%TO.P,S17,2*%
%TO.N,index2_home*%
X159263631Y-79095495D03*
%TD*%
D10*
%TO.P,REF\u002A\u002A,1*%
%TO.N,full_bottom2*%
X109540121Y-110444598D03*
%TD*%
%TO.P,REF\u002A\u002A,1*%
%TO.N,pinkie1_top*%
X72113909Y-58635579D03*
%TD*%
D17*
%TO.P,S20,1*%
%TO.N,P19*%
X127260612Y-105237971D03*
%TO.P,S20,2*%
%TO.N,full_bottom*%
X128445591Y-116935762D03*
%TD*%
D18*
%TO.P,S15,1*%
%TO.N,P14*%
X129454647Y-60874876D03*
%TO.P,S15,2*%
%TO.N,index1_top*%
X141129976Y-59485922D03*
%TD*%
D10*
%TO.P,REF\u002A\u002A,1*%
%TO.N,P14*%
X92026235Y-58261188D03*
%TD*%
D13*
%TO.P,D18,1*%
%TO.N,index2_top*%
X157514698Y-53019836D03*
D19*
%TO.N,P10*%
X152084609Y-52449111D03*
%TO.P,D18,2*%
%TO.N,index2_top*%
X155366531Y-52794055D03*
D20*
%TO.N,P10*%
X149936442Y-52223330D03*
%TD*%
D21*
%TO.P,S5,1*%
%TO.N,P15*%
X70203650Y-78266653D03*
%TO.P,S5,2*%
%TO.N,pinkie1_home*%
X81572050Y-75266324D03*
%TD*%
D13*
%TO.P,D6,1*%
%TO.N,pinkie1_top*%
X75321697Y-49890513D03*
D22*
%TO.N,P6*%
X69874997Y-50271383D03*
D23*
%TO.P,D6,2*%
X67720259Y-50422057D03*
D22*
%TO.N,pinkie1_top*%
X73166959Y-50041187D03*
%TD*%
D24*
%TO.P,S10,1*%
%TO.N,P18*%
X108490000Y-85035000D03*
%TO.P,S10,2*%
%TO.N,middle_bottom*%
X120040000Y-82835000D03*
%TD*%
D25*
%TO.P,MCU1,*%
%TO.N,*%
X180975000Y-40005000D03*
X170815000Y-40005000D03*
D26*
X191135000Y-41783000D03*
D25*
X193675000Y-55245000D03*
D26*
X196215000Y-41783000D03*
D27*
X198755000Y-41275000D03*
D28*
X175895000Y-53975000D03*
D26*
X180975000Y-41783000D03*
D27*
X188595000Y-41275000D03*
D29*
X173355000Y-53467000D03*
X178435000Y-53467000D03*
D27*
X193675000Y-41275000D03*
D26*
X198755000Y-41783000D03*
D27*
X191135000Y-41275000D03*
D28*
X193675000Y-53975000D03*
D25*
X186055000Y-55245000D03*
D26*
X193675000Y-41783000D03*
D29*
X175895000Y-53467000D03*
X170815000Y-53467000D03*
D25*
X178435000Y-40005000D03*
D26*
X183515000Y-41783000D03*
D25*
X175895000Y-40005000D03*
D28*
X186055000Y-53975000D03*
D26*
X188595000Y-41783000D03*
D25*
X173355000Y-40005000D03*
X198755000Y-40005000D03*
D28*
X173355000Y-53975000D03*
X178435000Y-53975000D03*
D29*
X191135000Y-53467000D03*
D27*
X183515000Y-41275000D03*
X170815000Y-41275000D03*
D25*
X191135000Y-55245000D03*
X183515000Y-40005000D03*
D29*
X180975000Y-53467000D03*
D28*
X183515000Y-53975000D03*
D25*
X193675000Y-40005000D03*
X198755000Y-55245000D03*
D28*
X191135000Y-53975000D03*
D27*
X186055000Y-41275000D03*
D29*
X183515000Y-53467000D03*
D28*
X198755000Y-53975000D03*
D27*
X178435000Y-41275000D03*
D25*
X175895000Y-55245000D03*
X183515000Y-55245000D03*
X180975000Y-55245000D03*
D26*
X170815000Y-41783000D03*
D28*
X188595000Y-53975000D03*
D25*
X188595000Y-55245000D03*
D29*
X196215000Y-53467000D03*
D25*
X191135000Y-40005000D03*
D29*
X198755000Y-53467000D03*
D25*
X170815000Y-55245000D03*
D30*
X198755000Y-40005000D03*
D26*
X178435000Y-41783000D03*
D28*
X180975000Y-53975000D03*
D25*
X186055000Y-40005000D03*
X173355000Y-55245000D03*
D27*
X175895000Y-41275000D03*
D25*
X188595000Y-40005000D03*
D27*
X180975000Y-41275000D03*
D25*
X178435000Y-55245000D03*
D27*
X173355000Y-41275000D03*
D26*
X173355000Y-41783000D03*
D27*
X196215000Y-41275000D03*
D28*
X196215000Y-53975000D03*
D29*
X193675000Y-53467000D03*
X188595000Y-53467000D03*
D28*
X170815000Y-53975000D03*
D25*
X196215000Y-40005000D03*
D26*
X175895000Y-41783000D03*
D25*
X196215000Y-55245000D03*
D26*
X186055000Y-41783000D03*
D29*
X186055000Y-53467000D03*
D31*
%TO.P,MCU1,1*%
%TO.N,RAW*%
X198755000Y-48387000D03*
D32*
X198755000Y-52451000D03*
D33*
X198755000Y-48387000D03*
D31*
%TO.P,MCU1,2*%
%TO.N,GND*%
X196215000Y-48387000D03*
D33*
X196215000Y-48387000D03*
D32*
X196215000Y-52451000D03*
%TO.P,MCU1,3*%
%TO.N,RST*%
X193675000Y-52451000D03*
D31*
X193675000Y-48387000D03*
D33*
X193675000Y-48387000D03*
D32*
%TO.P,MCU1,4*%
%TO.N,VCC*%
X191135000Y-52451000D03*
D33*
X191135000Y-48387000D03*
D31*
X191135000Y-48387000D03*
D32*
%TO.P,MCU1,5*%
%TO.N,P21*%
X188595000Y-52451000D03*
D31*
X188595000Y-48387000D03*
D33*
X188595000Y-48387000D03*
D32*
%TO.P,MCU1,6*%
%TO.N,P20*%
X186055000Y-52451000D03*
D31*
X186055000Y-48387000D03*
D33*
X186055000Y-48387000D03*
%TO.P,MCU1,7*%
%TO.N,P19*%
X183515000Y-48387000D03*
D31*
X183515000Y-48387000D03*
D32*
X183515000Y-52451000D03*
D31*
%TO.P,MCU1,8*%
%TO.N,P18*%
X180975000Y-48387000D03*
D32*
X180975000Y-52451000D03*
D33*
X180975000Y-48387000D03*
%TO.P,MCU1,9*%
%TO.N,P15*%
X178435000Y-48387000D03*
D31*
X178435000Y-48387000D03*
D32*
X178435000Y-52451000D03*
D31*
%TO.P,MCU1,10*%
%TO.N,P14*%
X175895000Y-48387000D03*
D32*
X175895000Y-52451000D03*
D33*
X175895000Y-48387000D03*
%TO.P,MCU1,11*%
%TO.N,P16*%
X173355000Y-48387000D03*
D31*
X173355000Y-48387000D03*
D32*
X173355000Y-52451000D03*
D33*
%TO.P,MCU1,12*%
%TO.N,P10*%
X170815000Y-48387000D03*
D31*
X170815000Y-48387000D03*
D32*
X170815000Y-52451000D03*
D33*
%TO.P,MCU1,13*%
%TO.N,P9*%
X170815000Y-46863000D03*
D34*
X170815000Y-46863000D03*
D35*
X170815000Y-42799000D03*
D33*
%TO.P,MCU1,14*%
%TO.N,P8*%
X173355000Y-46863000D03*
D34*
X173355000Y-46863000D03*
D35*
X173355000Y-42799000D03*
D34*
%TO.P,MCU1,15*%
%TO.N,P7*%
X175895000Y-46863000D03*
D35*
X175895000Y-42799000D03*
D33*
X175895000Y-46863000D03*
D35*
%TO.P,MCU1,16*%
%TO.N,P6*%
X178435000Y-42799000D03*
D34*
X178435000Y-46863000D03*
D33*
X178435000Y-46863000D03*
D34*
%TO.P,MCU1,17*%
%TO.N,P5*%
X180975000Y-46863000D03*
D35*
X180975000Y-42799000D03*
D33*
X180975000Y-46863000D03*
%TO.P,MCU1,18*%
%TO.N,P4*%
X183515000Y-46863000D03*
D35*
X183515000Y-42799000D03*
D34*
X183515000Y-46863000D03*
D33*
%TO.P,MCU1,19*%
%TO.N,P3*%
X186055000Y-46863000D03*
D35*
X186055000Y-42799000D03*
D34*
X186055000Y-46863000D03*
%TO.P,MCU1,20*%
%TO.N,P2*%
X188595000Y-46863000D03*
D35*
X188595000Y-42799000D03*
D33*
X188595000Y-46863000D03*
D35*
%TO.P,MCU1,21*%
%TO.N,GND*%
X191135000Y-42799000D03*
D34*
X191135000Y-46863000D03*
D33*
X191135000Y-46863000D03*
D34*
%TO.P,MCU1,22*%
X193675000Y-46863000D03*
D35*
X193675000Y-42799000D03*
D33*
X193675000Y-46863000D03*
D34*
%TO.P,MCU1,23*%
%TO.N,P0*%
X196215000Y-46863000D03*
D33*
X196215000Y-46863000D03*
D35*
X196215000Y-42799000D03*
D33*
%TO.P,MCU1,24*%
%TO.N,P1*%
X198755000Y-46863000D03*
D34*
X198755000Y-46863000D03*
D35*
X198755000Y-42799000D03*
%TD*%
D10*
%TO.P,REF\u002A\u002A,1*%
%TO.N,index2_top*%
X152837078Y-61075019D03*
%TD*%
D36*
%TO.P,,*%
%TO.N,*%
X161765000Y-101085000D03*
%TD*%
D37*
%TO.P,S19,1*%
%TO.N,P19*%
X106607962Y-107593184D03*
%TO.P,S19,2*%
%TO.N,full_bottom2*%
X110587694Y-118656828D03*
%TD*%
D13*
%TO.P,D15,1*%
%TO.N,index1_top*%
X137286221Y-50445774D03*
D14*
%TO.N,P8*%
X131839521Y-50064904D03*
D15*
%TO.P,D15,2*%
X129684783Y-49914230D03*
D14*
%TO.N,index1_top*%
X135131483Y-50295100D03*
%TD*%
D13*
%TO.P,D3,1*%
%TO.N,pinkie2_top*%
X52051481Y-52061283D03*
D38*
%TO.N,P6*%
X46591481Y-52061283D03*
%TO.P,D3,2*%
%TO.N,pinkie2_top*%
X49891481Y-52061283D03*
D39*
%TO.N,P6*%
X44431481Y-52061283D03*
%TD*%
D10*
%TO.P,REF\u002A\u002A,1*%
%TO.N,pinkie1_home*%
X73299769Y-75594168D03*
%TD*%
%TO.P,REF\u002A\u002A,1*%
%TO.N,P15*%
X150537452Y-82954501D03*
%TD*%
D40*
%TO.P,D19,1*%
%TO.N,P6*%
X117677355Y-107485220D03*
D13*
%TO.N,full_bottom2*%
X118531487Y-112877999D03*
D40*
%TO.P,D19,2*%
X118193589Y-110744592D03*
D41*
%TO.N,P6*%
X117339457Y-105351813D03*
%TD*%
D10*
%TO.P,REF\u002A\u002A,1*%
%TO.N,index1_home*%
X131706712Y-75617885D03*
%TD*%
D38*
%TO.P,D1,1*%
%TO.N,P9*%
X46591481Y-86061283D03*
D13*
%TO.N,pinkie2_bottom*%
X52051481Y-86061283D03*
D38*
%TO.P,D1,2*%
X49891481Y-86061283D03*
D39*
%TO.N,P9*%
X44431481Y-86061283D03*
%TD*%
D36*
%TO.P,,*%
%TO.N,*%
X169765000Y-99085000D03*
%TD*%
D10*
%TO.P,REF\u002A\u002A,1*%
%TO.N,pinkie2_home*%
X48241481Y-77561283D03*
%TD*%
%TO.P,REF\u002A\u002A,1*%
%TO.N,P19*%
X144442963Y-110462210D03*
%TD*%
%TO.P,REF\u002A\u002A,1*%
%TO.N,full_top*%
X168086583Y-119397462D03*
%TD*%
D36*
%TO.P,,*%
%TO.N,*%
X167765000Y-61085000D03*
%TD*%
D13*
%TO.P,D22,1*%
%TO.N,full_top*%
X173140208Y-127222228D03*
D42*
%TO.N,P8*%
X176113937Y-122643087D03*
%TO.P,D22,2*%
%TO.N,full_top*%
X174316629Y-125410699D03*
D43*
%TO.N,P8*%
X177290358Y-120831558D03*
%TD*%
D16*
%TO.P,S16,1*%
%TO.N,P18*%
X145769956Y-96983012D03*
%TO.P,S16,2*%
%TO.N,index2_bottom*%
X157486647Y-96002367D03*
%TD*%
D44*
%TO.P,S23,1*%
%TO.N,P19*%
X185382443Y-128329493D03*
%TO.P,S23,2*%
%TO.N,full_top2*%
X178435704Y-137815552D03*
%TD*%
D11*
%TO.P,VCC,1*%
%TO.N,VCC*%
X151135000Y-34925000D03*
%TO.P,VCC,2*%
%TO.N,P0*%
X148595000Y-34925000D03*
%TO.P,VCC,3*%
%TO.N,P1*%
X146055000Y-34925000D03*
%TO.P,VCC,4*%
%TO.N,P2*%
X143515000Y-34925000D03*
%TO.P,VCC,5*%
%TO.N,P3*%
X140975000Y-34925000D03*
%TO.P,VCC,6*%
%TO.N,P4*%
X138435000Y-34925000D03*
%TO.P,VCC,7*%
%TO.N,P5*%
X135895000Y-34925000D03*
%TO.P,VCC,8*%
%TO.N,P20*%
X133355000Y-34925000D03*
%TO.P,VCC,9*%
%TO.N,P21*%
X130815000Y-34925000D03*
%TO.P,VCC,10*%
%TO.N,GND*%
X128275000Y-34925000D03*
%TD*%
D10*
%TO.P,REF\u002A\u002A,1*%
%TO.N,middle_top*%
X111765000Y-48585000D03*
%TD*%
D36*
%TO.P,,*%
%TO.N,*%
X188965000Y-76475000D03*
%TD*%
D10*
%TO.P,REF\u002A\u002A,1*%
%TO.N,P14*%
X111765000Y-53585000D03*
%TD*%
%TO.P,REF\u002A\u002A,1*%
%TO.N,P16*%
X48241481Y-82561283D03*
%TD*%
D36*
%TO.P,,*%
%TO.N,*%
X199765000Y-33085000D03*
%TD*%
D10*
%TO.P,REF\u002A\u002A,1*%
%TO.N,pinkie2_top*%
X48241481Y-60561283D03*
%TD*%
%TO.P,REF\u002A\u002A,1*%
%TO.N,P14*%
X72462691Y-63623400D03*
%TD*%
%TO.P,REF\u002A\u002A,1*%
%TO.N,full_home*%
X149170556Y-112090051D03*
%TD*%
%TO.P,REF\u002A\u002A,1*%
%TO.N,full_bottom*%
X129415854Y-108714039D03*
%TD*%
D24*
%TO.P,S2,1*%
%TO.N,P16*%
X44966481Y-80011283D03*
%TO.P,S2,2*%
%TO.N,pinkie2_home*%
X56516481Y-77811283D03*
%TD*%
%TO.P,S3,1*%
%TO.N,P16*%
X44966481Y-63011283D03*
%TO.P,S3,2*%
%TO.N,pinkie2_top*%
X56516481Y-60811283D03*
%TD*%
D13*
%TO.P,D14,1*%
%TO.N,index1_home*%
X136100361Y-67404363D03*
D14*
%TO.N,P8*%
X130653661Y-67023493D03*
%TO.P,D14,2*%
%TO.N,index1_home*%
X133945623Y-67253689D03*
D15*
%TO.N,P8*%
X128498923Y-66872819D03*
%TD*%
D24*
%TO.P,S11,1*%
%TO.N,P15*%
X108490000Y-68035000D03*
%TO.P,S11,2*%
%TO.N,middle_home*%
X120040000Y-65835000D03*
%TD*%
%TO.P,S1,1*%
%TO.N,P16*%
X44966481Y-97011283D03*
%TO.P,S1,2*%
%TO.N,pinkie2_bottom*%
X56516481Y-94811283D03*
%TD*%
D10*
%TO.P,REF\u002A\u002A,1*%
%TO.N,P19*%
X163893231Y-116674266D03*
%TD*%
%TO.P,REF\u002A\u002A,1*%
%TO.N,P19*%
X181248163Y-128698086D03*
%TD*%
D36*
%TO.P,,*%
%TO.N,*%
X199765000Y-69085000D03*
%TD*%
D45*
%TO.P,S8,1*%
%TO.N,P15*%
X89257528Y-72816681D03*
%TO.P,S8,2*%
%TO.N,ring_home*%
X100723713Y-70214932D03*
%TD*%
D10*
%TO.P,REF\u002A\u002A,1*%
%TO.N,ring_home*%
X92445029Y-70253878D03*
%TD*%
D36*
%TO.P,,*%
%TO.N,*%
X100765000Y-101085000D03*
%TD*%
%TO.P,,*%
%TO.N,*%
X32765000Y-101085000D03*
%TD*%
D10*
%TO.P,REF\u002A\u002A,1*%
%TO.N,index1_bottom*%
X130520852Y-92576474D03*
%TD*%
D18*
%TO.P,S13,1*%
%TO.N,P18*%
X127082927Y-94792054D03*
%TO.P,S13,2*%
%TO.N,index1_bottom*%
X138758256Y-93403100D03*
%TD*%
D46*
%TO.P,,*%
%TO.N,*%
X168755000Y-78175000D03*
X188955000Y-76475000D03*
%TD*%
D10*
%TO.P,REF\u002A\u002A,1*%
%TO.N,full_top2*%
X184658155Y-132354854D03*
%TD*%
%TO.P,REF\u002A\u002A,1*%
%TO.N,P18*%
X130172070Y-97564294D03*
%TD*%
%TO.P,REF\u002A\u002A,1*%
%TO.N,P15*%
X92619526Y-75250832D03*
%TD*%
%TO.P,REF\u002A\u002A,1*%
%TO.N,pinkie1_bottom*%
X74485629Y-92552757D03*
%TD*%
%TO.P,REF\u002A\u002A,1*%
%TO.N,P14*%
X152314436Y-66047629D03*
%TD*%
D36*
%TO.P,,*%
%TO.N,*%
X32765000Y-33085000D03*
%TD*%
D13*
%TO.P,D11,1*%
%TO.N,middle_home*%
X115575000Y-57085000D03*
D38*
%TO.N,P9*%
X110115000Y-57085000D03*
D39*
%TO.P,D11,2*%
X107955000Y-57085000D03*
D38*
%TO.N,middle_home*%
X113415000Y-57085000D03*
%TD*%
D10*
%TO.P,REF\u002A\u002A,1*%
%TO.N,P19*%
X124434880Y-108278261D03*
%TD*%
D12*
%TO.P,,1*%
%TO.N,RST*%
X179705000Y-34925000D03*
%TO.P,,2*%
%TO.N,GND*%
X174625000Y-34925000D03*
%TD*%
D47*
%TO.P,D8,1*%
%TO.N,P7*%
X90499388Y-61816640D03*
D13*
%TO.N,ring_home*%
X95956062Y-61626089D03*
D48*
%TO.P,D8,2*%
%TO.N,P7*%
X88340704Y-61892023D03*
D47*
%TO.N,ring_home*%
X93797378Y-61701472D03*
%TD*%
D21*
%TO.P,S4,1*%
%TO.N,P18*%
X71389510Y-95225242D03*
%TO.P,S4,2*%
%TO.N,pinkie1_bottom*%
X82757910Y-92224913D03*
%TD*%
D36*
%TO.P,,*%
%TO.N,*%
X199765000Y-99085000D03*
%TD*%
D13*
%TO.P,D12,1*%
%TO.N,middle_top*%
X115575000Y-40085000D03*
D38*
%TO.N,P9*%
X110115000Y-40085000D03*
%TO.P,D12,2*%
%TO.N,middle_top*%
X113415000Y-40085000D03*
D39*
%TO.N,P9*%
X107955000Y-40085000D03*
%TD*%
D10*
%TO.P,REF\u002A\u002A,1*%
%TO.N,middle_home*%
X111765000Y-65585000D03*
%TD*%
D38*
%TO.P,D10,1*%
%TO.N,P9*%
X110115000Y-74085000D03*
D13*
%TO.N,middle_bottom*%
X115575000Y-74085000D03*
D38*
%TO.P,D10,2*%
X113415000Y-74085000D03*
D39*
%TO.N,P9*%
X107955000Y-74085000D03*
%TD*%
D47*
%TO.P,D9,1*%
%TO.N,P7*%
X89906097Y-44826996D03*
D13*
%TO.N,ring_top*%
X95362771Y-44636445D03*
D48*
%TO.P,D9,2*%
%TO.N,P7*%
X87747413Y-44902379D03*
D47*
%TO.N,ring_top*%
X93204087Y-44711828D03*
%TD*%
D10*
%TO.P,REF\u002A\u002A,1*%
%TO.N,P19*%
X104601680Y-111226771D03*
%TD*%
D36*
%TO.P,,*%
%TO.N,*%
X199765000Y-61085000D03*
%TD*%
%TO.P,,*%
%TO.N,*%
X182765000Y-152085000D03*
%TD*%
D18*
%TO.P,S14,1*%
%TO.N,P15*%
X128268787Y-77833465D03*
%TO.P,S14,2*%
%TO.N,index1_home*%
X139944116Y-76444511D03*
%TD*%
D22*
%TO.P,D5,1*%
%TO.N,P6*%
X71060858Y-67229972D03*
D13*
%TO.N,pinkie1_home*%
X76507558Y-66849102D03*
D23*
%TO.P,D5,2*%
%TO.N,P6*%
X68906120Y-67380646D03*
D22*
%TO.N,pinkie1_home*%
X74352820Y-66999776D03*
%TD*%
D10*
%TO.P,REF\u002A\u002A,1*%
%TO.N,P14*%
X132543790Y-63647117D03*
%TD*%
D13*
%TO.P,D20,1*%
%TO.N,full_bottom*%
X137551446Y-113250365D03*
D49*
%TO.N,P7*%
X138027316Y-107811142D03*
D50*
%TO.P,D20,2*%
X138215572Y-105659361D03*
D49*
%TO.N,full_bottom*%
X137739702Y-111098584D03*
%TD*%
D51*
%TO.P,S21,1*%
%TO.N,P19*%
X147920271Y-108195836D03*
%TO.P,S21,2*%
%TO.N,full_home*%
X146240100Y-119832826D03*
%TD*%
D10*
%TO.P,REF\u002A\u002A,1*%
%TO.N,P18*%
X111765000Y-87585000D03*
%TD*%
D36*
%TO.P,,*%
%TO.N,*%
X171915000Y-95475000D03*
X182415000Y-75975000D03*
X171915000Y-75975000D03*
X182415000Y-95475000D03*
%TD*%
D22*
%TO.P,D4,1*%
%TO.N,P6*%
X72246718Y-84188561D03*
D13*
%TO.N,pinkie1_bottom*%
X77693418Y-83807691D03*
D22*
%TO.P,D4,2*%
X75538680Y-83958365D03*
D23*
%TO.N,P6*%
X70091980Y-84339235D03*
%TD*%
D10*
%TO.P,REF\u002A\u002A,1*%
%TO.N,P15*%
X73648551Y-80581989D03*
%TD*%
D36*
%TO.P,,*%
%TO.N,*%
X169765000Y-69085000D03*
%TD*%
D10*
%TO.P,REF\u002A\u002A,1*%
%TO.N,index2_home*%
X151060095Y-77981891D03*
%TD*%
D52*
%TO.P,D23,1*%
%TO.N,P10*%
X191661875Y-137446064D03*
D13*
%TO.N,full_top2*%
X187668683Y-141169775D03*
D53*
%TO.P,D23,2*%
%TO.N,P10*%
X193241599Y-135972947D03*
D52*
%TO.N,full_top2*%
X189248407Y-139696658D03*
%TD*%
D10*
%TO.P,REF\u002A\u002A,1*%
%TO.N,ring_top*%
X91851737Y-53264234D03*
%TD*%
%TO.P,REF\u002A\u002A,1*%
%TO.N,P16*%
X48241481Y-99561283D03*
%TD*%
%TO.P,REF\u002A\u002A,1*%
%TO.N,P18*%
X148760468Y-99861373D03*
%TD*%
D24*
%TO.P,S12,1*%
%TO.N,P14*%
X108490000Y-51035000D03*
%TO.P,S12,2*%
%TO.N,middle_top*%
X120040000Y-48835000D03*
%TD*%
D36*
%TO.P,,*%
%TO.N,*%
X204765000Y-132085000D03*
%TD*%
D16*
%TO.P,S18,1*%
%TO.N,P14*%
X149323924Y-63169268D03*
%TO.P,S18,2*%
%TO.N,index2_top*%
X161040615Y-62188623D03*
%TD*%
D46*
%TO.P,,*%
%TO.N,*%
X188955000Y-94975000D03*
X168755000Y-93275000D03*
%TD*%
D13*
%TO.P,D16,1*%
%TO.N,index2_bottom*%
X153960731Y-86833580D03*
D19*
%TO.N,P10*%
X148530642Y-86262855D03*
%TO.P,D16,2*%
%TO.N,index2_bottom*%
X151812564Y-86607799D03*
D20*
%TO.N,P10*%
X146382475Y-86037074D03*
%TD*%
D10*
%TO.P,REF\u002A\u002A,1*%
%TO.N,index1_top*%
X132892572Y-58659297D03*
%TD*%
D45*
%TO.P,S9,1*%
%TO.N,P14*%
X88664236Y-55827037D03*
%TO.P,S9,2*%
%TO.N,ring_top*%
X100130421Y-53225288D03*
%TD*%
D10*
%TO.P,REF\u002A\u002A,1*%
%TO.N,P18*%
X93212818Y-92240476D03*
%TD*%
D36*
%TO.P,,*%
%TO.N,*%
X167765000Y-33085000D03*
%TD*%
%TO.P,,*%
%TO.N,*%
X161765000Y-33085000D03*
%TD*%
D38*
%TO.P,D2,1*%
%TO.N,P7*%
X46591481Y-69061283D03*
D13*
%TO.N,pinkie2_home*%
X52051481Y-69061283D03*
D39*
%TO.P,D2,2*%
%TO.N,P7*%
X44431481Y-69061283D03*
D38*
%TO.N,pinkie2_home*%
X49891481Y-69061283D03*
%TD*%
D54*
%TO.P,S22,1*%
%TO.N,P19*%
X167815533Y-115316450D03*
%TO.P,S22,2*%
%TO.N,full_top*%
X163370027Y-126201301D03*
%TD*%
D21*
%TO.P,S6,1*%
%TO.N,P14*%
X69017790Y-61308064D03*
%TO.P,S6,2*%
%TO.N,pinkie1_top*%
X80386190Y-58307735D03*
%TD*%
D47*
%TO.P,D7,1*%
%TO.N,P7*%
X91092680Y-78806284D03*
D13*
%TO.N,ring_bottom*%
X96549354Y-78615733D03*
D47*
%TO.P,D7,2*%
X94390670Y-78691116D03*
D48*
%TO.N,P7*%
X88933996Y-78881667D03*
%TD*%
D45*
%TO.P,S7,1*%
%TO.N,P18*%
X89850819Y-89806325D03*
%TO.P,S7,2*%
%TO.N,ring_bottom*%
X101317004Y-87204576D03*
%TD*%
D10*
%TO.P,REF\u002A\u002A,1*%
%TO.N,P15*%
X111765000Y-70585000D03*
%TD*%
D55*
%TO.P,D21,1*%
%TO.N,P9*%
X157744651Y-113297275D03*
D13*
%TO.N,full_home*%
X155967049Y-118459807D03*
D56*
%TO.P,D21,2*%
%TO.N,P9*%
X158447879Y-111254955D03*
D55*
%TO.N,full_home*%
X156670277Y-116417487D03*
%TD*%
D19*
%TO.P,D17,1*%
%TO.N,P10*%
X150307625Y-69355983D03*
D13*
%TO.N,index2_home*%
X155737714Y-69926708D03*
D20*
%TO.P,D17,2*%
%TO.N,P10*%
X148159458Y-69130202D03*
D19*
%TO.N,index2_home*%
X153589547Y-69700927D03*
%TD*%
D36*
%TO.P,,*%
%TO.N,*%
X188965000Y-99335000D03*
%TD*%
D10*
%TO.P,REF\u002A\u002A,1*%
%TO.N,ring_bottom*%
X93038320Y-87243522D03*
%TD*%
D36*
%TO.P,,*%
%TO.N,*%
X104765000Y-122085000D03*
%TD*%
D10*
%TO.P,REF\u002A\u002A,1*%
%TO.N,index2_bottom*%
X149283111Y-94888764D03*
%TD*%
D57*
%TO.N,pinkie2_bottom*%
X49891481Y-86061283D02*
X52051481Y-86061283D01*
X50280216Y-92936762D02*
X54227746Y-92936762D01*
X48241481Y-94561283D02*
X49573109Y-93229655D01*
X52051481Y-90337069D02*
X52051481Y-86061283D01*
X48241481Y-94561283D02*
X51758588Y-91044176D01*
X54934853Y-93229655D02*
X56516481Y-94811283D01*
X50280216Y-92936763D02*
G75*
G03*
X49573110Y-93229656I-3J-999993D01*
G01*
X54227746Y-92936763D02*
G75*
G02*
X54934852Y-93229656I3J-999993D01*
G01*
X52051480Y-90337069D02*
G75*
G02*
X51758587Y-91044175I-999993J-3D01*
G01*
%TO.N,P9*%
X158447879Y-111254955D02*
X158447879Y-112179833D01*
X116171129Y-100515480D02*
X140363827Y-100515480D01*
X107955000Y-74085000D02*
X105183372Y-76856628D01*
X107955000Y-40085000D02*
X110115000Y-40085000D01*
X158154986Y-112886940D02*
X157744651Y-113297275D01*
X104890479Y-43563735D02*
X104890479Y-53606265D01*
X107955000Y-40085000D02*
X105183372Y-42856628D01*
X141070934Y-100808373D02*
X144109668Y-103847107D01*
X117060786Y-38735000D02*
X109719214Y-38735000D01*
X105183372Y-54313372D02*
X107955000Y-57085000D01*
X125310107Y-46570107D02*
X117767893Y-39027893D01*
X144816775Y-104140000D02*
X154525786Y-104140000D01*
X170815000Y-46863000D02*
X126017214Y-46863000D01*
X107955000Y-74085000D02*
X110115000Y-74085000D01*
X104890479Y-60563735D02*
X104890479Y-70606265D01*
X44431481Y-86061283D02*
X46591481Y-86061283D01*
X104890479Y-77563735D02*
X104890479Y-89234830D01*
X107955000Y-57085000D02*
X110115000Y-57085000D01*
X107955000Y-57085000D02*
X105183372Y-59856628D01*
X155232893Y-104432893D02*
X158154986Y-107354986D01*
X105183372Y-89941937D02*
X115464022Y-100222587D01*
X109012107Y-39027893D02*
X107955000Y-40085000D01*
X105183372Y-71313372D02*
X107955000Y-74085000D01*
X158447879Y-108062093D02*
X158447879Y-111254955D01*
X158447878Y-112179833D02*
G75*
G02*
X158154985Y-112886939I-999993J-3D01*
G01*
X104890480Y-70606265D02*
G75*
G03*
X105183373Y-71313371I999993J-3D01*
G01*
X104890480Y-53606265D02*
G75*
G03*
X105183373Y-54313371I999993J-3D01*
G01*
X104890480Y-77563735D02*
G75*
G02*
X105183373Y-76856629I999998J1D01*
G01*
X104890480Y-43563735D02*
G75*
G02*
X105183373Y-42856629I999993J3D01*
G01*
X140363827Y-100515481D02*
G75*
G02*
X141070933Y-100808374I3J-999993D01*
G01*
X155232893Y-104432893D02*
G75*
G03*
X154525786Y-104140000I-707106J-707106D01*
G01*
X105183372Y-89941937D02*
G75*
G02*
X104890479Y-89234830I707106J707106D01*
G01*
X116171129Y-100515479D02*
G75*
G02*
X115464023Y-100222586I-1J999998D01*
G01*
X104890480Y-60563735D02*
G75*
G02*
X105183373Y-59856629I999993J3D01*
G01*
X158447878Y-108062093D02*
G75*
G03*
X158154985Y-107354987I-999998J1D01*
G01*
X117060786Y-38735001D02*
G75*
G02*
X117767892Y-39027894I3J-999993D01*
G01*
X125310107Y-46570107D02*
G75*
G03*
X126017214Y-46863000I707106J707106D01*
G01*
X144816775Y-104139999D02*
G75*
G02*
X144109669Y-103847106I-3J999993D01*
G01*
X109719214Y-38735001D02*
G75*
G03*
X109012108Y-39027894I-3J-999993D01*
G01*
%TO.N,P16*%
X44966481Y-63011283D02*
X47223588Y-65268390D01*
X47930695Y-82561283D02*
X48241481Y-82561283D01*
X44966481Y-80011283D02*
X47223588Y-82268390D01*
X47930695Y-65561283D02*
X48241481Y-65561283D01*
X47930695Y-99561283D02*
X48241481Y-99561283D01*
X44966481Y-97011283D02*
X47223588Y-99268390D01*
X47223588Y-65268390D02*
G75*
G03*
X47930695Y-65561283I707106J707106D01*
G01*
X47930695Y-82561282D02*
G75*
G02*
X47223589Y-82268389I-3J999993D01*
G01*
X47930695Y-99561282D02*
G75*
G02*
X47223589Y-99268389I-3J999993D01*
G01*
%TO.N,pinkie2_home*%
X52051481Y-73337069D02*
X52051481Y-69061283D01*
X54934853Y-76229655D02*
X56516481Y-77811283D01*
X50280216Y-75936762D02*
X54227746Y-75936762D01*
X48241481Y-77561283D02*
X51758588Y-74044176D01*
X48241481Y-77561283D02*
X49573109Y-76229655D01*
X49891481Y-69061283D02*
X52051481Y-69061283D01*
X50280216Y-75936763D02*
G75*
G03*
X49573110Y-76229656I-3J-999993D01*
G01*
X54934853Y-76229655D02*
G75*
G03*
X54227746Y-75936762I-707106J-707106D01*
G01*
X52051480Y-73337069D02*
G75*
G02*
X51758587Y-74044175I-999993J-3D01*
G01*
%TO.N,P7*%
X175602107Y-43522107D02*
X174917893Y-42837893D01*
X44431481Y-69061283D02*
X46591481Y-69061283D01*
X168617107Y-44107893D02*
X166662893Y-46062107D01*
X169741618Y-39173382D02*
X169202893Y-39712107D01*
X87747413Y-44902379D02*
X85281880Y-47367912D01*
X138215572Y-102434786D02*
X138215572Y-105659361D01*
X88933996Y-78881667D02*
X86468463Y-81347200D01*
X175895000Y-46863000D02*
X175895000Y-44229214D01*
X85600810Y-65046131D02*
X85600810Y-68455811D01*
X88340704Y-61892023D02*
X90424005Y-61892023D01*
X88933996Y-78881667D02*
X91017297Y-78881667D01*
X88340704Y-61892023D02*
X85893703Y-64339024D01*
X125437825Y-46062107D02*
X117954090Y-38578373D01*
X117246983Y-38285480D02*
X106273734Y-38285480D01*
X115984931Y-100965000D02*
X136745786Y-100965000D01*
X102455786Y-41275000D02*
X91789006Y-41275000D01*
X137452893Y-101257893D02*
X137922679Y-101727679D01*
X105566627Y-38578373D02*
X103162893Y-40982107D01*
X165955786Y-46355000D02*
X126144932Y-46355000D01*
X85582279Y-68474342D02*
X85582279Y-75115736D01*
X173406575Y-38880489D02*
X170448725Y-38880489D01*
X91081899Y-41567893D02*
X87747413Y-44902379D01*
X85600810Y-68455811D02*
X85582279Y-68474342D01*
X91017297Y-78881667D02*
X91092680Y-78806284D01*
X138215572Y-107622886D02*
X138027316Y-107811142D01*
X86468463Y-89481325D02*
X94669725Y-97682587D01*
X174332107Y-39391807D02*
X174113682Y-39173382D01*
X86175570Y-82054307D02*
X86175570Y-88774218D01*
X90424005Y-61892023D02*
X90499388Y-61816640D01*
X84988987Y-48075019D02*
X84988987Y-58126092D01*
X87747413Y-44902379D02*
X89830714Y-44902379D01*
X85875172Y-75822843D02*
X88933996Y-78881667D01*
X95376832Y-97975480D02*
X112166984Y-97975480D01*
X168910000Y-40419214D02*
X168910000Y-43400786D01*
X174625000Y-42130786D02*
X174625000Y-40098914D01*
X112874091Y-98268373D02*
X115277824Y-100672107D01*
X89830714Y-44902379D02*
X89906097Y-44826996D01*
X138215572Y-105659361D02*
X138215572Y-107622886D01*
X85281880Y-58833199D02*
X88340704Y-61892023D01*
X102455786Y-41274999D02*
G75*
G03*
X103162892Y-40982106I3J999993D01*
G01*
X91081899Y-41567893D02*
G75*
G02*
X91789006Y-41275000I707104J-707101D01*
G01*
X85281880Y-47367912D02*
G75*
G03*
X84988987Y-48075019I707106J-707106D01*
G01*
X125437825Y-46062107D02*
G75*
G03*
X126144932Y-46355000I707106J707106D01*
G01*
X136745786Y-100965001D02*
G75*
G02*
X137452892Y-101257894I3J-999993D01*
G01*
X86175571Y-82054307D02*
G75*
G02*
X86468464Y-81347201I999998J1D01*
G01*
X174332107Y-39391807D02*
G75*
G02*
X174625000Y-40098914I-707101J-707104D01*
G01*
X85582280Y-75115736D02*
G75*
G03*
X85875173Y-75822842I999993J-3D01*
G01*
X117246983Y-38285481D02*
G75*
G02*
X117954089Y-38578374I1J-999998D01*
G01*
X175602107Y-43522107D02*
G75*
G02*
X175895000Y-44229214I-707101J-707104D01*
G01*
X115984931Y-100964999D02*
G75*
G02*
X115277825Y-100672106I-1J999998D01*
G01*
X173406575Y-38880490D02*
G75*
G02*
X174113681Y-39173383I3J-999993D01*
G01*
X95376832Y-97975479D02*
G75*
G02*
X94669726Y-97682586I-3J999993D01*
G01*
X174625001Y-42130786D02*
G75*
G03*
X174917894Y-42837892I999998J-1D01*
G01*
X138215571Y-102434786D02*
G75*
G03*
X137922678Y-101727680I-999993J3D01*
G01*
X169202893Y-39712107D02*
G75*
G03*
X168910000Y-40419214I707106J-707106D01*
G01*
X85281880Y-58833199D02*
G75*
G02*
X84988987Y-58126092I707106J707106D01*
G01*
X166662893Y-46062107D02*
G75*
G02*
X165955786Y-46355000I-707106J707106D01*
G01*
X169741618Y-39173382D02*
G75*
G02*
X170448725Y-38880489I707106J-707106D01*
G01*
X86468463Y-89481325D02*
G75*
G02*
X86175570Y-88774218I707101J707104D01*
G01*
X168909999Y-43400786D02*
G75*
G02*
X168617106Y-44107892I-999993J-3D01*
G01*
X112874091Y-98268373D02*
G75*
G03*
X112166984Y-97975480I-707104J-707101D01*
G01*
X105566627Y-38578373D02*
G75*
G02*
X106273734Y-38285480I707104J-707101D01*
G01*
X85893703Y-64339024D02*
G75*
G03*
X85600810Y-65046131I707106J-707106D01*
G01*
%TO.N,pinkie2_top*%
X50280216Y-58936762D02*
X54227746Y-58936762D01*
X54934853Y-59229655D02*
X56516481Y-60811283D01*
X49891481Y-52061283D02*
X52051481Y-52061283D01*
X52051481Y-56337069D02*
X52051481Y-52061283D01*
X48241481Y-60561283D02*
X51758588Y-57044176D01*
X48241481Y-60561283D02*
X49573109Y-59229655D01*
X50280216Y-58936763D02*
G75*
G03*
X49573110Y-59229656I-3J-999993D01*
G01*
X51758588Y-57044176D02*
G75*
G03*
X52051481Y-56337069I-707106J707106D01*
G01*
X54227746Y-58936763D02*
G75*
G02*
X54934852Y-59229656I3J-999993D01*
G01*
%TO.N,P6*%
X105380430Y-38128853D02*
X103162175Y-40347107D01*
X168460480Y-40233017D02*
X168460480Y-43214588D01*
X68906120Y-67380646D02*
X70910184Y-67380646D01*
X65157738Y-53398792D02*
X65157738Y-63218050D01*
X66343598Y-70357382D02*
X66343598Y-80176639D01*
X68922107Y-48552893D02*
X68013152Y-49461848D01*
X175811755Y-38430969D02*
X170262528Y-38430969D01*
X177165000Y-42130786D02*
X177165000Y-39784214D01*
X168167587Y-43921695D02*
X166476695Y-45612587D01*
X44431481Y-52061283D02*
X45777814Y-50714950D01*
X169555421Y-38723862D02*
X168753373Y-39525910D01*
X70910184Y-67380646D02*
X71060858Y-67229972D01*
X67602893Y-94491233D02*
X71243767Y-98132107D01*
X70091980Y-84339235D02*
X67602893Y-86828322D01*
X66636491Y-80883746D02*
X70091980Y-84339235D01*
X46484921Y-50422057D02*
X67720259Y-50422057D01*
X176872107Y-39077107D02*
X176518862Y-38723862D01*
X117433181Y-37835960D02*
X106087536Y-37835960D01*
X117632350Y-107440215D02*
X117677355Y-107485220D01*
X68906120Y-67380646D02*
X66636491Y-69650275D01*
X102455069Y-40640000D02*
X87409214Y-40640000D01*
X44431481Y-52061283D02*
X46591481Y-52061283D01*
X72096044Y-84339235D02*
X72246718Y-84188561D01*
X165769588Y-45905480D02*
X126331129Y-45905480D01*
X67310000Y-87535429D02*
X67310000Y-93784126D01*
X117339457Y-103783671D02*
X117339457Y-105351813D01*
X86702107Y-40932893D02*
X79667893Y-47967107D01*
X67720259Y-50422057D02*
X65450631Y-52691685D01*
X125624023Y-45612587D02*
X118140287Y-38128853D01*
X65450631Y-63925157D02*
X68906120Y-67380646D01*
X70091980Y-84339235D02*
X72096044Y-84339235D01*
X71950874Y-98425000D02*
X111980786Y-98425000D01*
X112687893Y-98717893D02*
X117046564Y-103076564D01*
X117339457Y-105351813D02*
X117339457Y-106733108D01*
X78960786Y-48260000D02*
X69629214Y-48260000D01*
X69724323Y-50422057D02*
X69874997Y-50271383D01*
X178435000Y-46863000D02*
X178435000Y-44229214D01*
X178142107Y-43522107D02*
X177457893Y-42837893D01*
X67720259Y-50168955D02*
X67720259Y-50422057D01*
X67720259Y-50422057D02*
X69724323Y-50422057D01*
X78960786Y-48259999D02*
G75*
G03*
X79667892Y-47967106I3J999993D01*
G01*
X102455069Y-40639999D02*
G75*
G03*
X103162174Y-40347106I2J999993D01*
G01*
X168460481Y-40233017D02*
G75*
G02*
X168753374Y-39525911I999993J3D01*
G01*
X46484921Y-50422058D02*
G75*
G03*
X45777815Y-50714951I-3J-999993D01*
G01*
X65157739Y-63218050D02*
G75*
G03*
X65450632Y-63925156I999993J-3D01*
G01*
X178142107Y-43522107D02*
G75*
G02*
X178435000Y-44229214I-707101J-707104D01*
G01*
X66636491Y-80883746D02*
G75*
G02*
X66343598Y-80176639I707106J707106D01*
G01*
X68922107Y-48552893D02*
G75*
G02*
X69629214Y-48260000I707104J-707101D01*
G01*
X67602893Y-86828322D02*
G75*
G03*
X67310000Y-87535429I707106J-707106D01*
G01*
X166476695Y-45612587D02*
G75*
G02*
X165769588Y-45905480I-707106J707106D01*
G01*
X66636491Y-69650275D02*
G75*
G03*
X66343598Y-70357382I707106J-707106D01*
G01*
X65157739Y-53398792D02*
G75*
G02*
X65450632Y-52691686I999993J3D01*
G01*
X170262528Y-38430970D02*
G75*
G03*
X169555422Y-38723863I-3J-999993D01*
G01*
X117339456Y-103783671D02*
G75*
G03*
X117046563Y-103076565I-999993J3D01*
G01*
X71243767Y-98132107D02*
G75*
G03*
X71950874Y-98425000I707106J707106D01*
G01*
X125624023Y-45612587D02*
G75*
G03*
X126331129Y-45905480I707104J707101D01*
G01*
X175811755Y-38430970D02*
G75*
G02*
X176518861Y-38723863I1J-999998D01*
G01*
X105380430Y-38128853D02*
G75*
G02*
X106087536Y-37835960I707104J-707101D01*
G01*
X67310001Y-93784126D02*
G75*
G03*
X67602894Y-94491232I999993J-3D01*
G01*
X112687893Y-98717893D02*
G75*
G03*
X111980786Y-98425000I-707106J-707106D01*
G01*
X168167587Y-43921695D02*
G75*
G03*
X168460480Y-43214588I-707106J707106D01*
G01*
X117433181Y-37835961D02*
G75*
G02*
X118140286Y-38128854I2J-999993D01*
G01*
X177165001Y-42130786D02*
G75*
G03*
X177457894Y-42837892I999993J-3D01*
G01*
X117339458Y-106733108D02*
G75*
G03*
X117632351Y-107440214I999993J-3D01*
G01*
X176872107Y-39077107D02*
G75*
G02*
X177165000Y-39784214I-707101J-707104D01*
G01*
X67720260Y-50168955D02*
G75*
G02*
X68013153Y-49461849I999993J3D01*
G01*
X86702107Y-40932893D02*
G75*
G02*
X87409214Y-40640000I707106J-707106D01*
G01*
%TO.N,pinkie1_bottom*%
X77693418Y-88930754D02*
X77693418Y-83807691D01*
X75538680Y-83958365D02*
X77542744Y-83958365D01*
X74485629Y-92552757D02*
X76166648Y-90871738D01*
X77542744Y-83958365D02*
X77693418Y-83807691D01*
X81404735Y-90871738D02*
X82757910Y-92224913D01*
X74485629Y-92552757D02*
X77400525Y-89637861D01*
X76873755Y-90578845D02*
X80697628Y-90578845D01*
X76166648Y-90871738D02*
G75*
G02*
X76873755Y-90578845I707106J-707106D01*
G01*
X77693417Y-88930754D02*
G75*
G02*
X77400524Y-89637860I-999993J-3D01*
G01*
X81404735Y-90871738D02*
G75*
G03*
X80697628Y-90578845I-707106J-707106D01*
G01*
%TO.N,P18*%
X92699184Y-92240476D02*
X93212818Y-92240476D01*
X130172070Y-97564294D02*
X127399830Y-94792054D01*
X145882107Y-96983012D02*
X148760468Y-99861373D01*
X71389510Y-95225242D02*
X73411952Y-97247684D01*
X127399830Y-94792054D02*
X127082927Y-94792054D01*
X74119059Y-97540577D02*
X74834411Y-97540577D01*
X111454214Y-87585000D02*
X111765000Y-87585000D01*
X108490000Y-85035000D02*
X110747107Y-87292107D01*
X89850819Y-89806325D02*
X91992077Y-91947583D01*
X145769956Y-96983012D02*
X145882107Y-96983012D01*
X111454214Y-87584999D02*
G75*
G02*
X110747108Y-87292106I-3J999993D01*
G01*
X91992077Y-91947583D02*
G75*
G03*
X92699184Y-92240476I707106J707106D01*
G01*
X74119059Y-97540576D02*
G75*
G02*
X73411953Y-97247683I-3J999993D01*
G01*
%TO.N,pinkie1_home*%
X74352820Y-66999776D02*
X76356884Y-66999776D01*
X80218875Y-73913149D02*
X81572050Y-75266324D01*
X73299769Y-75594168D02*
X74980788Y-73913149D01*
X75687895Y-73620256D02*
X79511768Y-73620256D01*
X73299769Y-75594168D02*
X76214665Y-72679272D01*
X76356884Y-66999776D02*
X76507558Y-66849102D01*
X76507558Y-71972165D02*
X76507558Y-66849102D01*
X75687895Y-73620257D02*
G75*
G03*
X74980789Y-73913150I-3J-999993D01*
G01*
X80218875Y-73913149D02*
G75*
G03*
X79511768Y-73620256I-707106J-707106D01*
G01*
X76507557Y-71972165D02*
G75*
G02*
X76214664Y-72679271I-999993J-3D01*
G01*
%TO.N,P15*%
X72933200Y-80581989D02*
X73648551Y-80581989D01*
X150537452Y-82954501D02*
X147659091Y-80076140D01*
X111454214Y-70585000D02*
X111765000Y-70585000D01*
X70203650Y-78266653D02*
X72226093Y-80289096D01*
X92105893Y-75250832D02*
X92619526Y-75250832D01*
X128585689Y-77833465D02*
X128268787Y-77833465D01*
X147659091Y-80076140D02*
X147546940Y-80076140D01*
X131357930Y-80605706D02*
X128585689Y-77833465D01*
X108490000Y-68035000D02*
X110747107Y-70292107D01*
X89257528Y-72816681D02*
X91398786Y-74957939D01*
X92105893Y-75250831D02*
G75*
G02*
X91398787Y-74957938I-3J999993D01*
G01*
X111454214Y-70584999D02*
G75*
G02*
X110747108Y-70292106I-3J999993D01*
G01*
X72226093Y-80289096D02*
G75*
G03*
X72933200Y-80581989I707106J707106D01*
G01*
%TO.N,pinkie1_top*%
X72113909Y-58635579D02*
X75028804Y-55720684D01*
X79033015Y-56954560D02*
X80386190Y-58307735D01*
X73166959Y-50041187D02*
X75171023Y-50041187D01*
X75321697Y-55013577D02*
X75321697Y-49890513D01*
X75171023Y-50041187D02*
X75321697Y-49890513D01*
X74502035Y-56661667D02*
X78325908Y-56661667D01*
X72113909Y-58635579D02*
X73794928Y-56954560D01*
X78325908Y-56661668D02*
G75*
G02*
X79033014Y-56954561I3J-999993D01*
G01*
X75321696Y-55013577D02*
G75*
G02*
X75028803Y-55720683I-999993J-3D01*
G01*
X74502035Y-56661668D02*
G75*
G03*
X73794929Y-56954561I-3J-999993D01*
G01*
%TO.N,P14*%
X129771549Y-60874876D02*
X129454647Y-60874876D01*
X149436075Y-63169268D02*
X149323924Y-63169268D01*
X152314436Y-66047629D02*
X149436075Y-63169268D01*
X111454214Y-53585000D02*
X111765000Y-53585000D01*
X71747340Y-63623400D02*
X72462691Y-63623400D01*
X88664236Y-55827037D02*
X90805494Y-57968295D01*
X69017790Y-61308064D02*
X71040233Y-63330507D01*
X108490000Y-51035000D02*
X110747107Y-53292107D01*
X132543790Y-63647117D02*
X129771549Y-60874876D01*
X91512601Y-58261188D02*
X92026235Y-58261188D01*
X71040233Y-63330507D02*
G75*
G03*
X71747340Y-63623400I707106J707106D01*
G01*
X91512601Y-58261187D02*
G75*
G02*
X90805495Y-57968294I-3J999993D01*
G01*
X110747107Y-53292107D02*
G75*
G03*
X111454214Y-53585000I707106J707106D01*
G01*
%TO.N,ring_bottom*%
X95251705Y-85444351D02*
X99142565Y-85444351D01*
X93038320Y-87243522D02*
X94544598Y-85737244D01*
X96473971Y-78691116D02*
X96549354Y-78615733D01*
X96549354Y-83318274D02*
X96549354Y-78615733D01*
X93038320Y-87243522D02*
X96256461Y-84025381D01*
X99849672Y-85737244D02*
X101317004Y-87204576D01*
X94390670Y-78691116D02*
X96473971Y-78691116D01*
X96549353Y-83318274D02*
G75*
G02*
X96256460Y-84025380I-999993J-3D01*
G01*
X99849672Y-85737244D02*
G75*
G03*
X99142565Y-85444351I-707106J-707106D01*
G01*
X94544598Y-85737244D02*
G75*
G02*
X95251705Y-85444351I707106J-707106D01*
G01*
%TO.N,ring_home*%
X94658414Y-68454707D02*
X98549274Y-68454707D01*
X92445029Y-70253878D02*
X95663169Y-67035738D01*
X99256381Y-68747600D02*
X100723713Y-70214932D01*
X95956062Y-66328631D02*
X95956062Y-61626089D01*
X95880679Y-61701472D02*
X95956062Y-61626089D01*
X92445029Y-70253878D02*
X93951307Y-68747600D01*
X93797378Y-61701472D02*
X95880679Y-61701472D01*
X93951307Y-68747600D02*
G75*
G02*
X94658414Y-68454707I707106J-707106D01*
G01*
X99256381Y-68747600D02*
G75*
G03*
X98549274Y-68454707I-707106J-707106D01*
G01*
X95663169Y-67035738D02*
G75*
G03*
X95956062Y-66328631I-707106J707106D01*
G01*
%TO.N,ring_top*%
X93204087Y-44711828D02*
X95287388Y-44711828D01*
X91851737Y-53264234D02*
X94023238Y-51092733D01*
X95362771Y-49338986D02*
X95362771Y-44636445D01*
X95287388Y-44711828D02*
X95362771Y-44636445D01*
X97997866Y-51092733D02*
X100130421Y-53225288D01*
X91851737Y-53264234D02*
X95069878Y-50046093D01*
X94730345Y-50799840D02*
X97290759Y-50799840D01*
X94023238Y-51092733D02*
G75*
G02*
X94730345Y-50799840I707106J-707106D01*
G01*
X97997866Y-51092733D02*
G75*
G03*
X97290759Y-50799840I-707106J-707106D01*
G01*
X95069878Y-50046093D02*
G75*
G03*
X95362771Y-49338986I-707106J707106D01*
G01*
%TO.N,middle_bottom*%
X115575000Y-78360786D02*
X115575000Y-74085000D01*
X111765000Y-82585000D02*
X115282107Y-79067893D01*
X113415000Y-74085000D02*
X115575000Y-74085000D01*
X111765000Y-82585000D02*
X113096628Y-81253372D01*
X118458372Y-81253372D02*
X120040000Y-82835000D01*
X113803735Y-80960479D02*
X117751265Y-80960479D01*
X113096628Y-81253372D02*
G75*
G02*
X113803735Y-80960479I707106J-707106D01*
G01*
X115282107Y-79067893D02*
G75*
G03*
X115575000Y-78360786I-707106J707106D01*
G01*
X117751265Y-80960480D02*
G75*
G02*
X118458371Y-81253373I3J-999993D01*
G01*
%TO.N,middle_home*%
X117808314Y-63603314D02*
X120040000Y-65835000D01*
X114453793Y-63310421D02*
X117101207Y-63310421D01*
X111765000Y-65585000D02*
X113746686Y-63603314D01*
X113415000Y-57085000D02*
X115575000Y-57085000D01*
X111765000Y-65585000D02*
X115282107Y-62067893D01*
X115575000Y-61360786D02*
X115575000Y-57085000D01*
X115574999Y-61360786D02*
G75*
G02*
X115282106Y-62067892I-999993J-3D01*
G01*
X117808314Y-63603314D02*
G75*
G03*
X117101207Y-63310421I-707106J-707106D01*
G01*
X113746686Y-63603314D02*
G75*
G02*
X114453793Y-63310421I707106J-707106D01*
G01*
%TO.N,middle_top*%
X111765000Y-48585000D02*
X115282107Y-45067893D01*
X111765000Y-48585000D02*
X113096628Y-47253372D01*
X113803735Y-46960479D02*
X117751265Y-46960479D01*
X115575000Y-44360786D02*
X115575000Y-40085000D01*
X118458372Y-47253372D02*
X120040000Y-48835000D01*
X113415000Y-40085000D02*
X115575000Y-40085000D01*
X115574999Y-44360786D02*
G75*
G02*
X115282106Y-45067892I-999993J-3D01*
G01*
X113096628Y-47253372D02*
G75*
G02*
X113803735Y-46960479I707106J-707106D01*
G01*
X117751265Y-46960480D02*
G75*
G02*
X118458371Y-47253373I3J-999993D01*
G01*
%TO.N,index1_bottom*%
X134763827Y-84212278D02*
X134914501Y-84362952D01*
X134914501Y-87768611D02*
X134914501Y-84362952D01*
X132211413Y-91300127D02*
X136241069Y-91300127D01*
X132759763Y-84212278D02*
X134763827Y-84212278D01*
X136948176Y-91593020D02*
X138758256Y-93403100D01*
X130520852Y-92576474D02*
X131504306Y-91593020D01*
X130520852Y-92576474D02*
X134621608Y-88475718D01*
X136948176Y-91593020D02*
G75*
G03*
X136241069Y-91300127I-707106J-707106D01*
G01*
X134914500Y-87768611D02*
G75*
G02*
X134621607Y-88475717I-999993J-3D01*
G01*
X131504306Y-91593020D02*
G75*
G02*
X132211413Y-91300127I707106J-707106D01*
G01*
%TO.N,P8*%
X135213182Y-100065961D02*
X140550026Y-100065961D01*
X127313063Y-83831408D02*
X129317127Y-83831408D01*
X126012792Y-54000435D02*
X126012792Y-63972474D01*
X126305685Y-64679581D02*
X128498923Y-66872819D01*
X128498923Y-66872819D02*
X125119825Y-70251917D01*
X123933965Y-95993965D02*
X127713067Y-99773067D01*
X129317127Y-83831408D02*
X129467801Y-83982082D01*
X131688847Y-49914230D02*
X131839521Y-50064904D01*
X177290358Y-120831558D02*
X177290358Y-121052452D01*
X155419090Y-103983373D02*
X159385000Y-107949283D01*
X173355000Y-46863000D02*
X172923382Y-47294618D01*
X125119825Y-81638170D02*
X127313063Y-83831408D01*
X175552893Y-108877893D02*
X176997465Y-110322465D01*
X141257133Y-100358854D02*
X144295866Y-103397587D01*
X177290358Y-111029572D02*
X177290358Y-120831558D01*
X128420174Y-100065960D02*
X135213182Y-100065961D01*
X124826932Y-70959024D02*
X124826932Y-80931063D01*
X159385000Y-107950000D02*
X159727107Y-108292107D01*
X159385000Y-107949283D02*
X159385000Y-107950000D01*
X129684783Y-49914230D02*
X131688847Y-49914230D01*
X160434214Y-108585000D02*
X174845786Y-108585000D01*
X130554596Y-47880404D02*
X129977676Y-48457324D01*
X128498923Y-66872819D02*
X130502987Y-66872819D01*
X130502987Y-66872819D02*
X130653661Y-67023493D01*
X129684783Y-49164431D02*
X129684783Y-49914230D01*
X129684783Y-49914230D02*
X126305685Y-53293328D01*
X172216275Y-47587511D02*
X131261703Y-47587511D01*
X123641072Y-87917613D02*
X123641072Y-95286858D01*
X145002973Y-103690480D02*
X154711983Y-103690480D01*
X127313063Y-83831408D02*
X123933965Y-87210506D01*
X176997465Y-121759559D02*
X176113937Y-122643087D01*
X125119825Y-70251917D02*
G75*
G03*
X124826932Y-70959024I707106J-707106D01*
G01*
X125119825Y-81638170D02*
G75*
G02*
X124826932Y-80931063I707106J707106D01*
G01*
X177290357Y-111029572D02*
G75*
G03*
X176997464Y-110322466I-999993J3D01*
G01*
X141257133Y-100358854D02*
G75*
G03*
X140550026Y-100065961I-707106J-707106D01*
G01*
X176997465Y-121759559D02*
G75*
G03*
X177290358Y-121052452I-707106J707106D01*
G01*
X123933965Y-87210506D02*
G75*
G03*
X123641072Y-87917613I707106J-707106D01*
G01*
X154711983Y-103690481D02*
G75*
G02*
X155419089Y-103983374I3J-999993D01*
G01*
X172923382Y-47294618D02*
G75*
G02*
X172216275Y-47587511I-707106J707106D01*
G01*
X129684784Y-49164431D02*
G75*
G02*
X129977677Y-48457325I999993J3D01*
G01*
X145002973Y-103690479D02*
G75*
G02*
X144295867Y-103397586I-3J999993D01*
G01*
X126012793Y-63972474D02*
G75*
G03*
X126305686Y-64679580I999993J-3D01*
G01*
X174845786Y-108585001D02*
G75*
G02*
X175552892Y-108877894I3J-999993D01*
G01*
X123933965Y-95993965D02*
G75*
G02*
X123641072Y-95286858I707106J707106D01*
G01*
X160434214Y-108584999D02*
G75*
G02*
X159727108Y-108292106I-3J999993D01*
G01*
X126012793Y-54000435D02*
G75*
G02*
X126305686Y-53293329I999993J3D01*
G01*
X128420174Y-100065959D02*
G75*
G02*
X127713068Y-99773066I-3J999993D01*
G01*
X131261703Y-47587512D02*
G75*
G03*
X130554597Y-47880405I-3J-999993D01*
G01*
%TO.N,index1_home*%
X133945623Y-67253689D02*
X135949687Y-67253689D01*
X131706712Y-75617885D02*
X132690166Y-74634431D01*
X135949687Y-67253689D02*
X136100361Y-67404363D01*
X136100361Y-70810022D02*
X136100361Y-67404363D01*
X138134036Y-74634431D02*
X139944116Y-76444511D01*
X133397273Y-74341538D02*
X137426929Y-74341538D01*
X131706712Y-75617885D02*
X135807468Y-71517129D01*
X136100360Y-70810022D02*
G75*
G02*
X135807467Y-71517128I-999993J-3D01*
G01*
X137426929Y-74341539D02*
G75*
G02*
X138134035Y-74634432I3J-999993D01*
G01*
X133397273Y-74341539D02*
G75*
G03*
X132690167Y-74634432I-3J-999993D01*
G01*
%TO.N,index1_top*%
X132892572Y-58659297D02*
X136993328Y-54558541D01*
X139319896Y-57675842D02*
X141129976Y-59485922D01*
X132892572Y-58659297D02*
X133876027Y-57675842D01*
X137135547Y-50295100D02*
X137286221Y-50445774D01*
X135131483Y-50295100D02*
X137135547Y-50295100D01*
X137286221Y-53851434D02*
X137286221Y-50445774D01*
X134583134Y-57382949D02*
X138612789Y-57382949D01*
X138612789Y-57382950D02*
G75*
G02*
X139319895Y-57675843I3J-999993D01*
G01*
X136993328Y-54558541D02*
G75*
G03*
X137286221Y-53851434I-707106J707106D01*
G01*
X134583134Y-57382950D02*
G75*
G03*
X133876028Y-57675843I-3J-999993D01*
G01*
%TO.N,index2_bottom*%
X150800574Y-93785515D02*
X154855581Y-93785515D01*
X153960731Y-89796930D02*
X153960731Y-86833580D01*
X149283111Y-94888764D02*
X150093467Y-94078408D01*
X151812564Y-86607799D02*
X153734950Y-86607799D01*
X153734950Y-86607799D02*
X153960731Y-86833580D01*
X155562688Y-94078408D02*
X157486647Y-96002367D01*
X149283111Y-94888764D02*
X153667838Y-90504037D01*
X150800574Y-93785516D02*
G75*
G03*
X150093468Y-94078409I-3J-999993D01*
G01*
X153667838Y-90504037D02*
G75*
G03*
X153960731Y-89796930I-707106J707106D01*
G01*
X155562688Y-94078408D02*
G75*
G03*
X154855581Y-93785515I-707106J-707106D01*
G01*
%TO.N,P10*%
X193241599Y-126345096D02*
X193241599Y-135972947D01*
X146256709Y-67227453D02*
X148159458Y-69130202D01*
X150081844Y-69130202D02*
X150307625Y-69355983D01*
X144479725Y-84134324D02*
X146382475Y-86037074D01*
X149936442Y-52223330D02*
X146256709Y-55903063D01*
X170815000Y-48387000D02*
X151417214Y-48387000D01*
X142409848Y-90423915D02*
X142409848Y-100456594D01*
X148304861Y-86037074D02*
X148530642Y-86262855D01*
X151858828Y-52223330D02*
X152084609Y-52449111D01*
X191661875Y-137446064D02*
X191768482Y-137446064D01*
X144186832Y-73517042D02*
X144186832Y-83427217D01*
X155605287Y-103533853D02*
X159914021Y-107842587D01*
X145963816Y-56610170D02*
X145963816Y-66520346D01*
X149936442Y-49867772D02*
X149936442Y-52223330D01*
X150710107Y-48679893D02*
X150229335Y-49160665D01*
X191768482Y-137446064D02*
X193241599Y-135972947D01*
X148159458Y-69130202D02*
X150081844Y-69130202D01*
X160621128Y-108135480D02*
X175446198Y-108135480D01*
X146382475Y-86037074D02*
X148304861Y-86037074D01*
X175709520Y-108398803D02*
X192948706Y-125637989D01*
X149936442Y-52223330D02*
X151858828Y-52223330D01*
X142702741Y-101163701D02*
X144487107Y-102948067D01*
X175446198Y-108135480D02*
X175709520Y-108398803D01*
X146382475Y-86037074D02*
X142702741Y-89716808D01*
X145194214Y-103240960D02*
X154898180Y-103240960D01*
X148159458Y-69130202D02*
X144479725Y-72809935D01*
X154898180Y-103240961D02*
G75*
G02*
X155605286Y-103533854I3J-999993D01*
G01*
X146256709Y-55903063D02*
G75*
G03*
X145963816Y-56610170I707106J-707106D01*
G01*
X144479725Y-72809935D02*
G75*
G03*
X144186832Y-73517042I707106J-707106D01*
G01*
X146256709Y-67227453D02*
G75*
G02*
X145963816Y-66520346I707106J707106D01*
G01*
X192948706Y-125637989D02*
G75*
G02*
X193241599Y-126345096I-707106J-707106D01*
G01*
X144186833Y-83427217D02*
G75*
G03*
X144479726Y-84134323I999993J-3D01*
G01*
X149936443Y-49867772D02*
G75*
G02*
X150229336Y-49160666I999993J3D01*
G01*
X159914021Y-107842587D02*
G75*
G03*
X160621128Y-108135480I707106J707106D01*
G01*
X150710107Y-48679893D02*
G75*
G02*
X151417214Y-48387000I707106J-707106D01*
G01*
X145194214Y-103240959D02*
G75*
G02*
X144487108Y-102948066I-3J999993D01*
G01*
X142409849Y-100456594D02*
G75*
G03*
X142702742Y-101163700I999993J-3D01*
G01*
X142702741Y-89716808D02*
G75*
G03*
X142409848Y-90423915I707106J-707106D01*
G01*
%TO.N,index2_home*%
X155511933Y-69700927D02*
X155737714Y-69926708D01*
X152577557Y-76878643D02*
X156632565Y-76878643D01*
X155737714Y-72890058D02*
X155737714Y-69926708D01*
X151060095Y-77981891D02*
X155444821Y-73597165D01*
X151060095Y-77981891D02*
X151870450Y-77171536D01*
X153589547Y-69700927D02*
X155511933Y-69700927D01*
X157339672Y-77171536D02*
X159263631Y-79095495D01*
X157339672Y-77171536D02*
G75*
G03*
X156632565Y-76878643I-707106J-707106D01*
G01*
X155444821Y-73597165D02*
G75*
G03*
X155737714Y-72890058I-707106J707106D01*
G01*
X151870450Y-77171536D02*
G75*
G02*
X152577557Y-76878643I707106J-707106D01*
G01*
%TO.N,index2_top*%
X159116656Y-60264664D02*
X161040615Y-62188623D01*
X152837078Y-61075019D02*
X153647433Y-60264664D01*
X152837078Y-61075019D02*
X157221805Y-56690292D01*
X157514698Y-55983185D02*
X157514698Y-53019836D01*
X157288917Y-52794055D02*
X157514698Y-53019836D01*
X154354540Y-59971771D02*
X158409549Y-59971771D01*
X155366531Y-52794055D02*
X157288917Y-52794055D01*
X158409549Y-59971772D02*
G75*
G02*
X159116655Y-60264665I3J-999993D01*
G01*
X157514697Y-55983185D02*
G75*
G02*
X157221804Y-56690291I-999993J-3D01*
G01*
X154354540Y-59971772D02*
G75*
G03*
X153647434Y-60264665I-3J-999993D01*
G01*
%TO.N,full_bottom2*%
X111949892Y-113268583D02*
X111949892Y-116880416D01*
X109540121Y-110444598D02*
X111680629Y-112585106D01*
X112387736Y-112877999D02*
X118531487Y-112877999D01*
X118193589Y-110744592D02*
X118193589Y-112125887D01*
X111656999Y-117587523D02*
X110587694Y-118656828D01*
X109540121Y-110444598D02*
X111656999Y-112561476D01*
X118486482Y-112832994D02*
X118531487Y-112877999D01*
X118193590Y-112125887D02*
G75*
G03*
X118486483Y-112832993I999993J-3D01*
G01*
X111949891Y-113268583D02*
G75*
G03*
X111656998Y-112561477I-999993J3D01*
G01*
X111656999Y-117587523D02*
G75*
G03*
X111949892Y-116880416I-707106J707106D01*
G01*
X112387736Y-112877998D02*
G75*
G02*
X111680630Y-112585105I-3J999993D01*
G01*
%TO.N,P19*%
X185382443Y-128329493D02*
X182030970Y-128329493D01*
X144442963Y-110462210D02*
X146416444Y-108488729D01*
X165665261Y-115316450D02*
X167815533Y-115316450D01*
X104601680Y-111226771D02*
X104601680Y-110013680D01*
X147123551Y-108195836D02*
X147920271Y-108195836D01*
X127260612Y-105452529D02*
X127260612Y-105237971D01*
X163893231Y-116674266D02*
X164958154Y-115609343D01*
X104894573Y-109306573D02*
X106607962Y-107593184D01*
X124434880Y-108278261D02*
X127260612Y-105452529D01*
X181323863Y-128622386D02*
X181248163Y-128698086D01*
X147123551Y-108195837D02*
G75*
G03*
X146416445Y-108488730I-3J-999993D01*
G01*
X165665261Y-115316451D02*
G75*
G03*
X164958155Y-115609344I-3J-999993D01*
G01*
X104601681Y-110013680D02*
G75*
G02*
X104894574Y-109306574I999993J3D01*
G01*
X182030970Y-128329494D02*
G75*
G03*
X181323864Y-128622387I-3J-999993D01*
G01*
%TO.N,full_bottom*%
X137739702Y-111098584D02*
X137739702Y-113062109D01*
X134366394Y-113250365D02*
X137551446Y-113250365D01*
X130605547Y-110317946D02*
X130605547Y-114361592D01*
X130312654Y-115068699D02*
X128445591Y-116935762D01*
X137739702Y-113062109D02*
X137551446Y-113250365D01*
X129415854Y-108714039D02*
X130312654Y-109610839D01*
X129415854Y-108714039D02*
X133659287Y-112957472D01*
X134366394Y-113250364D02*
G75*
G02*
X133659288Y-112957471I-3J999993D01*
G01*
X130312654Y-115068699D02*
G75*
G03*
X130605547Y-114361592I-707106J707106D01*
G01*
X130605546Y-110317946D02*
G75*
G03*
X130312653Y-109610840I-999993J3D01*
G01*
%TO.N,full_home*%
X149170556Y-112090051D02*
X149180857Y-112100352D01*
X155170029Y-118459807D02*
X155967049Y-118459807D01*
X156377384Y-118049472D02*
X155967049Y-118459807D01*
X149170556Y-112090051D02*
X149170556Y-112460334D01*
X149180857Y-112100352D02*
X149180857Y-117739929D01*
X149463449Y-113167441D02*
X154462922Y-118166914D01*
X156670277Y-116417487D02*
X156670277Y-117342365D01*
X148887964Y-118447036D02*
X147795067Y-119539933D01*
X147087960Y-119832826D02*
X146240100Y-119832826D01*
X149463449Y-113167441D02*
G75*
G02*
X149170556Y-112460334I707106J707106D01*
G01*
X156670276Y-117342365D02*
G75*
G02*
X156377383Y-118049471I-999993J-3D01*
G01*
X154462922Y-118166914D02*
G75*
G03*
X155170029Y-118459807I707106J707106D01*
G01*
X148887964Y-118447036D02*
G75*
G03*
X149180857Y-117739929I-707106J707106D01*
G01*
X147795067Y-119539933D02*
G75*
G02*
X147087960Y-119832826I-707106J707106D01*
G01*
%TO.N,full_top*%
X168086583Y-119397462D02*
X168086583Y-121754389D01*
X168379476Y-122461496D02*
X173140208Y-127222228D01*
X174023736Y-126338700D02*
X173140208Y-127222228D01*
X174316629Y-125410699D02*
X174316629Y-125631593D01*
X167793690Y-123465658D02*
X165350940Y-125908408D01*
X164643833Y-126201301D02*
X163370027Y-126201301D01*
X168086583Y-119397462D02*
X168086583Y-122758551D01*
X164643833Y-126201300D02*
G75*
G03*
X165350939Y-125908407I3J999993D01*
G01*
X168086584Y-121754389D02*
G75*
G03*
X168379477Y-122461495I999993J-3D01*
G01*
X167793690Y-123465658D02*
G75*
G03*
X168086583Y-122758551I-707106J707106D01*
G01*
X174316628Y-125631593D02*
G75*
G02*
X174023735Y-126338699I-999993J-3D01*
G01*
%TO.N,full_top2*%
X187668683Y-141169775D02*
X187775290Y-141169775D01*
X184365262Y-134698607D02*
X181541210Y-137522659D01*
X184658155Y-132354854D02*
X184658155Y-133991500D01*
X184658155Y-132354854D02*
X184658155Y-137745033D01*
X180834103Y-137815552D02*
X178435704Y-137815552D01*
X184951048Y-138452140D02*
X187668683Y-141169775D01*
X187775290Y-141169775D02*
X189248407Y-139696658D01*
X184658154Y-133991500D02*
G75*
G02*
X184365261Y-134698606I-999993J-3D01*
G01*
X184951048Y-138452140D02*
G75*
G02*
X184658155Y-137745033I707106J707106D01*
G01*
X180834103Y-137815551D02*
G75*
G03*
X181541209Y-137522658I3J999993D01*
G01*
%TO.N,GND*%
X191135000Y-46863000D02*
X193675000Y-46863000D01*
X191135000Y-44229214D02*
X191135000Y-46863000D01*
X174625000Y-34925000D02*
X175590477Y-35890477D01*
X193675000Y-46863000D02*
X194276786Y-46863000D01*
X194983893Y-47155893D02*
X196215000Y-48387000D01*
X190157893Y-42837893D02*
X190842107Y-43522107D01*
X186971263Y-36476263D02*
X189572107Y-39077107D01*
X189865000Y-39784214D02*
X189865000Y-42130786D01*
X176297584Y-36183370D02*
X186264156Y-36183370D01*
X194276786Y-46863001D02*
G75*
G02*
X194983892Y-47155894I3J-999993D01*
G01*
X191134999Y-44229214D02*
G75*
G03*
X190842106Y-43522108I-999993J3D01*
G01*
X186264156Y-36183371D02*
G75*
G02*
X186971262Y-36476264I3J-999993D01*
G01*
X189865001Y-42130786D02*
G75*
G03*
X190157894Y-42837892I999993J-3D01*
G01*
X176297584Y-36183369D02*
G75*
G02*
X175590478Y-35890476I-3J999993D01*
G01*
X189864999Y-39784214D02*
G75*
G03*
X189572106Y-39077108I-999993J3D01*
G01*
%TO.N,P1*%
X197485000Y-42130786D02*
X197485000Y-37243497D01*
X147032107Y-33947893D02*
X146055000Y-34925000D01*
X198755000Y-46863000D02*
X198755000Y-44229214D01*
X173879349Y-33498373D02*
X171936765Y-35440957D01*
X197192107Y-36536390D02*
X194154090Y-33498373D01*
X171229658Y-35733850D02*
X156163064Y-35733850D01*
X193446983Y-33205480D02*
X174586456Y-33205480D01*
X155455957Y-35440957D02*
X153962893Y-33947893D01*
X153255786Y-33655000D02*
X147739214Y-33655000D01*
X198462107Y-43522107D02*
X197777893Y-42837893D01*
X197485001Y-42130786D02*
G75*
G03*
X197777894Y-42837892I999998J-1D01*
G01*
X147032107Y-33947893D02*
G75*
G02*
X147739214Y-33655000I707104J-707101D01*
G01*
X193446983Y-33205481D02*
G75*
G02*
X194154089Y-33498374I3J-999993D01*
G01*
X198462107Y-43522107D02*
G75*
G02*
X198755000Y-44229214I-707101J-707104D01*
G01*
X171229658Y-35733849D02*
G75*
G03*
X171936764Y-35440956I3J999993D01*
G01*
X197192107Y-36536390D02*
G75*
G02*
X197485000Y-37243497I-707106J-707106D01*
G01*
X153255786Y-33655001D02*
G75*
G02*
X153962892Y-33947894I1J-999998D01*
G01*
X174586456Y-33205481D02*
G75*
G03*
X173879350Y-33498374I-3J-999993D01*
G01*
X155455957Y-35440957D02*
G75*
G03*
X156163064Y-35733850I707104J707101D01*
G01*
%TO.N,P0*%
X148595000Y-36844489D02*
X148595000Y-34925000D01*
X194945000Y-42130786D02*
X194945000Y-35339214D01*
X196215000Y-46863000D02*
X196215000Y-44229214D01*
X174065547Y-33947893D02*
X172122963Y-35890477D01*
X193260786Y-33655000D02*
X174772654Y-33655000D01*
X195922107Y-43522107D02*
X195237893Y-42837893D01*
X150837107Y-39500810D02*
X148887893Y-37551596D01*
X164892779Y-39793703D02*
X151544214Y-39793703D01*
X194652107Y-34632107D02*
X193967893Y-33947893D01*
X171415856Y-36183370D02*
X169331538Y-36183371D01*
X168624431Y-36476264D02*
X165599886Y-39500810D01*
X148595001Y-36844489D02*
G75*
G03*
X148887894Y-37551595I999993J-3D01*
G01*
X195922107Y-43522107D02*
G75*
G02*
X196215000Y-44229214I-707101J-707104D01*
G01*
X150837107Y-39500810D02*
G75*
G03*
X151544214Y-39793703I707104J707101D01*
G01*
X194945001Y-42130786D02*
G75*
G03*
X195237894Y-42837892I999993J-3D01*
G01*
X164892779Y-39793702D02*
G75*
G03*
X165599885Y-39500809I3J999993D01*
G01*
X169331538Y-36183372D02*
G75*
G03*
X168624432Y-36476265I-3J-999993D01*
G01*
X194652107Y-34632107D02*
G75*
G02*
X194945000Y-35339214I-707101J-707104D01*
G01*
X193260786Y-33655001D02*
G75*
G02*
X193967892Y-33947894I3J-999993D01*
G01*
X174065547Y-33947893D02*
G75*
G02*
X174772654Y-33655000I707106J-707106D01*
G01*
X172122963Y-35890477D02*
G75*
G02*
X171415856Y-36183370I-707106J707106D01*
G01*
%TO.N,P2*%
X183858976Y-36632890D02*
X169517736Y-36632890D01*
X187325000Y-42130786D02*
X187325000Y-40098914D01*
X188302107Y-43522107D02*
X187617893Y-42837893D01*
X165078976Y-40243223D02*
X146464214Y-40243223D01*
X187032107Y-39391807D02*
X184566083Y-36925783D01*
X168810629Y-36925784D02*
X168141545Y-37594868D01*
X143515000Y-37294009D02*
X143515000Y-34925000D01*
X145757107Y-39950330D02*
X143807893Y-38001116D01*
X188595000Y-46863000D02*
X188595000Y-44229214D01*
X168141545Y-37594868D02*
X165786083Y-39950330D01*
X187032107Y-39391807D02*
G75*
G02*
X187325000Y-40098914I-707101J-707104D01*
G01*
X183858976Y-36632891D02*
G75*
G02*
X184566082Y-36925784I1J-999998D01*
G01*
X188302107Y-43522107D02*
G75*
G02*
X188595000Y-44229214I-707101J-707104D01*
G01*
X187325001Y-42130786D02*
G75*
G03*
X187617894Y-42837892I999998J-1D01*
G01*
X169517736Y-36632890D02*
G75*
G03*
X168810629Y-36925784I1J-1000001D01*
G01*
X165078976Y-40243222D02*
G75*
G03*
X165786082Y-39950329I3J999993D01*
G01*
X143515001Y-37294009D02*
G75*
G03*
X143807894Y-38001115I999993J-3D01*
G01*
X145757107Y-39950330D02*
G75*
G03*
X146464214Y-40243223I707104J707101D01*
G01*
%TO.N,P3*%
X186055000Y-46863000D02*
X186055000Y-44229214D01*
X165265173Y-40692743D02*
X143289214Y-40692743D01*
X184785000Y-42130786D02*
X184785000Y-40098914D01*
X181768496Y-37082410D02*
X172085000Y-37082409D01*
X184492107Y-39391807D02*
X182475603Y-37375303D01*
X172085000Y-37082409D02*
X169703934Y-37082409D01*
X140975000Y-38378529D02*
X140975000Y-34925000D01*
X142582107Y-40399850D02*
X141267893Y-39085636D01*
X168996827Y-37375303D02*
X168591065Y-37781065D01*
X168591065Y-37781065D02*
X165972280Y-40399850D01*
X185762107Y-43522107D02*
X185077893Y-42837893D01*
X184785001Y-42130786D02*
G75*
G03*
X185077894Y-42837892I999998J-1D01*
G01*
X184492107Y-39391807D02*
G75*
G02*
X184785000Y-40098914I-707106J-707106D01*
G01*
X142582107Y-40399850D02*
G75*
G03*
X143289214Y-40692743I707104J707101D01*
G01*
X181768496Y-37082411D02*
G75*
G02*
X182475602Y-37375304I1J-999998D01*
G01*
X165265173Y-40692742D02*
G75*
G03*
X165972279Y-40399849I3J999993D01*
G01*
X140975001Y-38378529D02*
G75*
G03*
X141267894Y-39085635I999993J-3D01*
G01*
X185762107Y-43522107D02*
G75*
G02*
X186055000Y-44229214I-707101J-707104D01*
G01*
X168996827Y-37375303D02*
G75*
G02*
X169703934Y-37082409I707108J-707107D01*
G01*
%TO.N,P4*%
X138435000Y-38828049D02*
X138435000Y-34925000D01*
X167640000Y-39367847D02*
X167640000Y-39370000D01*
X169183025Y-37824822D02*
X167640000Y-39367847D01*
X181952107Y-39391807D02*
X180385123Y-37824823D01*
X165453523Y-41142263D02*
X140749214Y-41142263D01*
X140042107Y-40849370D02*
X138727893Y-39535156D01*
X179678016Y-37531930D02*
X172085000Y-37531929D01*
X167640000Y-39370000D02*
X166160630Y-40849370D01*
X183222107Y-43522107D02*
X182537893Y-42837893D01*
X182245000Y-42130786D02*
X182245000Y-40098914D01*
X172085000Y-37531929D02*
X169890132Y-37531929D01*
X183515000Y-46863000D02*
X183515000Y-44229214D01*
X182245001Y-42130786D02*
G75*
G03*
X182537894Y-42837892I999998J-1D01*
G01*
X138435001Y-38828049D02*
G75*
G03*
X138727894Y-39535155I999998J-1D01*
G01*
X166160630Y-40849370D02*
G75*
G02*
X165453523Y-41142263I-707106J707106D01*
G01*
X183222107Y-43522107D02*
G75*
G02*
X183515000Y-44229214I-707106J-707106D01*
G01*
X140042107Y-40849370D02*
G75*
G03*
X140749214Y-41142263I707106J707106D01*
G01*
X181952107Y-39391807D02*
G75*
G02*
X182245000Y-40098914I-707101J-707104D01*
G01*
X169890132Y-37531930D02*
G75*
G03*
X169183026Y-37824823I-3J-999993D01*
G01*
X179678016Y-37531931D02*
G75*
G02*
X180385122Y-37824824I1J-999998D01*
G01*
%TO.N,P5*%
X135895000Y-34925000D02*
X135895000Y-38960786D01*
X168089520Y-39556198D02*
X168089520Y-39554045D01*
X136187893Y-39667893D02*
X137818890Y-41298890D01*
X180975000Y-44229214D02*
X180975000Y-46863000D01*
X170076330Y-37981449D02*
X177587536Y-37981450D01*
X168089520Y-39554045D02*
X169369223Y-38274342D01*
X138525997Y-41591783D02*
X165639721Y-41591783D01*
X179705000Y-40098914D02*
X179705000Y-42130786D01*
X166346828Y-41298890D02*
X168089520Y-39556198D01*
X178294643Y-38274343D02*
X179412107Y-39391807D01*
X179997893Y-42837893D02*
X180682107Y-43522107D01*
X138525997Y-41591782D02*
G75*
G02*
X137818891Y-41298889I-3J999993D01*
G01*
X165639721Y-41591782D02*
G75*
G03*
X166346827Y-41298889I3J999993D01*
G01*
X180974999Y-44229214D02*
G75*
G03*
X180682106Y-43522108I-999998J1D01*
G01*
X179997893Y-42837893D02*
G75*
G02*
X179705000Y-42130786I707106J707106D01*
G01*
X179704999Y-40098914D02*
G75*
G03*
X179412106Y-39391808I-999993J3D01*
G01*
X170076330Y-37981450D02*
G75*
G03*
X169369224Y-38274343I-3J-999993D01*
G01*
X136187893Y-39667893D02*
G75*
G02*
X135895000Y-38960786I707101J707104D01*
G01*
X178294643Y-38274343D02*
G75*
G03*
X177587536Y-37981450I-707104J-707101D01*
G01*
%TD*%
M02*
